Año,Partido,NOMBRE DONANTE,MONTO 
2009,PARTIDO FRENTE FARABUNDO MARTI PARA LA LIBERACION NACIONAL,LA CONSTANCIA LIMITADA DE CAPITAL VARIABLE LA CONSTANCIA LTDA. DE C.V.,55000
2009,PARTIDO FRENTE FARABUNDO MARTI PARA LA LIBERACION NACIONAL,FRANCISCO ROBERTO LORENZANA DURAN,"16447,04"
2009,PARTIDO FRENTE FARABUNDO MARTI PARA LA LIBERACION NACIONAL,HUGO ROGER MARTINEZ BONILLA,"12782,6"
2009,PARTIDO FRENTE FARABUNDO MARTI PARA LA LIBERACION NACIONAL,JOSE LUIS MERINO,"12536,62"
2009,PARTIDO FRENTE FARABUNDO MARTI PARA LA LIBERACION NACIONAL,ZOILA BEATRIZ QUIJADA SOLIS,"12182,85"
2009,PARTIDO FRENTE FARABUNDO MARTI PARA LA LIBERACION NACIONAL,LORENA GUADALUPE PEÑA MENDOZA,"11704,1"
2009,PARTIDO FRENTE FARABUNDO MARTI PARA LA LIBERACION NACIONAL,OTHON SIGFRIDO REYES MORALES,"11645,84"
2009,PARTIDO FRENTE FARABUNDO MARTI PARA LA LIBERACION NACIONAL,HUMBERTO CENTENO NAJARRO,"9865,59"
2009,PARTIDO FRENTE FARABUNDO MARTI PARA LA LIBERACION NACIONAL,EMMA JULIA FABIAN HERNANDEZ,"9478,34"
2009,PARTIDO FRENTE FARABUNDO MARTI PARA LA LIBERACION NACIONAL,BLANCA NOEMI COTO ESTRADA,"9378,84"
2009,PARTIDO FRENTE FARABUNDO MARTI PARA LA LIBERACION NACIONAL,MEDARDO GONZALEZ TREJO,"9190,56"
2009,PARTIDO FRENTE FARABUNDO MARTI PARA LA LIBERACION NACIONAL,BENITO ANTONIO LARA FERNANDEZ,"9163,84"
2009,PARTIDO FRENTE FARABUNDO MARTI PARA LA LIBERACION NACIONAL,NORMA FIDELIA GUEVARA DE RAMIRIOS,"8994,59"
2009,PARTIDO FRENTE FARABUNDO MARTI PARA LA LIBERACION NACIONAL,NOE DE JESUS RODRIGUEZ SOLIS,"8903,84"
2009,PARTIDO FRENTE FARABUNDO MARTI PARA LA LIBERACION NACIONAL,ANA DAYSI VILLALOBOS MEMBREÑO,"8762,34"
2009,PARTIDO FRENTE FARABUNDO MARTI PARA LA LIBERACION NACIONAL,IRMA LOURDES PALACIOS VASQUEZ,"8761,84"
2009,PARTIDO FRENTE FARABUNDO MARTI PARA LA LIBERACION NACIONAL,CARLOS CORTEZ HERNANDEZ,"8723,84"
2009,PARTIDO FRENTE FARABUNDO MARTI PARA LA LIBERACION NACIONAL,RICARDO BLADIMIR GONZALEZ,"8505,84"
2009,PARTIDO FRENTE FARABUNDO MARTI PARA LA LIBERACION NACIONAL,LUIS ALBERTO CORVERA RIVAS,"8505,84"
2009,PARTIDO FRENTE FARABUNDO MARTI PARA LA LIBERACION NACIONAL,ANTONIO ECHEVERRIA VELIZ,"8505,84"
2009,PARTIDO FRENTE FARABUNDO MARTI PARA LA LIBERACION NACIONAL,GUILLERMO ANTONIO OLIVO MENDEZ,"8505,84"
2009,PARTIDO FRENTE FARABUNDO MARTI PARA LA LIBERACION NACIONAL,GASPAR ARMANDO PORTILLO BENITEZ,"8126,02"
2009,PARTIDO FRENTE FARABUNDO MARTI PARA LA LIBERACION NACIONAL,SALVADOR SANCHEZ CEREN,"7918,76"
2009,PARTIDO FRENTE FARABUNDO MARTI PARA LA LIBERACION NACIONAL,MARIA MARGARITA VELADO PUENTES,"7810,63"
2009,PARTIDO FRENTE FARABUNDO MARTI PARA LA LIBERACION NACIONAL,INMAR ROLANDO REYES,"7481,2"
2009,PARTIDO FRENTE FARABUNDO MARTI PARA LA LIBERACION NACIONAL,JORGE SCHAFIK HANDAL VEGA  SILVA,"7000,07"
2009,PARTIDO FRENTE FARABUNDO MARTI PARA LA LIBERACION NACIONAL,YOHALMO EDMUNDO CABRERA CHACON,"6856,34"
2009,PARTIDO FRENTE FARABUNDO MARTI PARA LA LIBERACION NACIONAL,JAIME GILBERTO VALDES HERNANDEZ,"6684,16"
2009,PARTIDO FRENTE FARABUNDO MARTI PARA LA LIBERACION NACIONAL,SANTIAGO FLORES ALFARO,"6476,7"
2009,PARTIDO FRENTE FARABUNDO MARTI PARA LA LIBERACION NACIONAL,JACKELINE NOEMI RIVERA AVALOS,"6410,38"
2009,PARTIDO FRENTE FARABUNDO MARTI PARA LA LIBERACION NACIONAL,MANUEL ORLANDO QUINTEROS AGUILAR,"6258,1"
2009,PARTIDO FRENTE FARABUNDO MARTI PARA LA LIBERACION NACIONAL,IRMA SEGUNDA AMAYA ECHEVERRIA,"6177,76"
2009,PARTIDO FRENTE FARABUNDO MARTI PARA LA LIBERACION NACIONAL,NERY ARELY DIAZ ARTERO,"5982,56"
2009,PARTIDO FRENTE FARABUNDO MARTI PARA LA LIBERACION NACIONAL,ORESTES FREDESMAN ORTEZ ANDRADE,"5927,66"
2009,PARTIDO FRENTE FARABUNDO MARTI PARA LA LIBERACION NACIONAL,SONIA MARGARITA RODRIGUEZ SIGUENZA,"5926,56"
2009,PARTIDO FRENTE FARABUNDO MARTI PARA LA LIBERACION NACIONAL,JOSE ALVARO CORNEJO MENA,"5926,56"
2009,PARTIDO FRENTE FARABUNDO MARTI PARA LA LIBERACION NACIONAL,WALTER EDUARDO DURAN MARTINEZ,"5812,52"
2009,PARTIDO FRENTE FARABUNDO MARTI PARA LA LIBERACION NACIONAL,ARGENTINA GARCIA VENTURA,"5768,75"
2009,PARTIDO FRENTE FARABUNDO MARTI PARA LA LIBERACION NACIONAL,DAVID RODRIGUEZ RIVERA,"5670,56"
2009,PARTIDO FRENTE FARABUNDO MARTI PARA LA LIBERACION NACIONAL,RAMON ARISTIDES VALENCIA ARANA,"5670,56"
2009,PARTIDO FRENTE FARABUNDO MARTI PARA LA LIBERACION NACIONAL,GUILLERMO FRANCISCO MATA BENNETT,"5670,56"
2009,PARTIDO FRENTE FARABUNDO MARTI PARA LA LIBERACION NACIONAL,GILBERTO RIVERA MEJIA,"5670,56"
2009,PARTIDO FRENTE FARABUNDO MARTI PARA LA LIBERACION NACIONAL,JOSE MANUEL MELGAR HENRIQUEZ,"5335,18"
2009,PARTIDO FRENTE FARABUNDO MARTI PARA LA LIBERACION NACIONAL,HORTENSIA MARGARITA LOPEZ QUINTANA,"5122,78"
2009,PARTIDO FRENTE FARABUNDO MARTI PARA LA LIBERACION NACIONAL,KARINA IVETTE SOSA,"4839,84"
2009,PARTIDO FRENTE FARABUNDO MARTI PARA LA LIBERACION NACIONAL,EUGENIO CHICAS MARTINEZ,"4782,98"
2009,PARTIDO FRENTE FARABUNDO MARTI PARA LA LIBERACION NACIONAL,BLANCA FLOR AMERICA BONILLA BONILLA,"4413,78"
2009,PARTIDO FRENTE FARABUNDO MARTI PARA LA LIBERACION NACIONAL,NIDIA DIAZ,4320
2009,PARTIDO FRENTE FARABUNDO MARTI PARA LA LIBERACION NACIONAL,GLORIA MARIA ANAYA PERLA,4320
2009,PARTIDO FRENTE FARABUNDO MARTI PARA LA LIBERACION NACIONAL,JOSE LEONEL VASQUEZ BUCARO,4320
2009,PARTIDO FRENTE FARABUNDO MARTI PARA LA LIBERACION NACIONAL,JORGE GUILLERMO E. SOL PEREZ,"4318,02"
2009,PARTIDO FRENTE FARABUNDO MARTI PARA LA LIBERACION NACIONAL,TOMAS CHAVEZ ALARCON,"4215,34"
2009,PARTIDO FRENTE FARABUNDO MARTI PARA LA LIBERACION NACIONAL,ELVIA VIOLETA MENJIVAR ESCALANTE,4012
2009,PARTIDO FRENTE FARABUNDO MARTI PARA LA LIBERACION NACIONAL,JOSE SAUL GALDAMEZ ABREGO,4000
2009,PARTIDO FRENTE FARABUNDO MARTI PARA LA LIBERACION NACIONAL,RENE AMILCAR CLAROS,"3986,76"
2009,PARTIDO FRENTE FARABUNDO MARTI PARA LA LIBERACION NACIONAL,JAIME EDGARDO JUAREZ,"3986,76"
2009,PARTIDO FRENTE FARABUNDO MARTI PARA LA LIBERACION NACIONAL,ALEXIS VIOLETA MUÑOZ DE CASTILLO,"3931,2"
2009,PARTIDO FRENTE FARABUNDO MARTI PARA LA LIBERACION NACIONAL,CALIXTO MEJIA HERNANDEZ,"3821,28"
2009,PARTIDO FRENTE FARABUNDO MARTI PARA LA LIBERACION NACIONAL,HERBERTH NESTOR MENJIVAR AMAYA,"3807,6"
2009,PARTIDO FRENTE FARABUNDO MARTI PARA LA LIBERACION NACIONAL,AMILCAR EFREN CARDONA MONTERROSA,"3611,51"
2009,PARTIDO FRENTE FARABUNDO MARTI PARA LA LIBERACION NACIONAL,HUGO MOLINA RODRIGUEZ,"3584,82"
2009,PARTIDO FRENTE FARABUNDO MARTI PARA LA LIBERACION NACIONAL,JOSE EBANAN QUINTANILLA GOMEZ,"3518,91"
2009,PARTIDO FRENTE FARABUNDO MARTI PARA LA LIBERACION NACIONAL,FELIPE VARGAS ORTIZ,"3500,04"
2009,PARTIDO FRENTE FARABUNDO MARTI PARA LA LIBERACION NACIONAL,EDUARDO ALFONSO LINARES RIVERA,3384
2009,PARTIDO FRENTE FARABUNDO MARTI PARA LA LIBERACION NACIONAL,CARLOS ALBERTO GARCIA,3300
2009,PARTIDO FRENTE FARABUNDO MARTI PARA LA LIBERACION NACIONAL,CARLOS ALFREDO CASTANEDA MAGAÑA,"3271,28"
2009,PARTIDO FRENTE FARABUNDO MARTI PARA LA LIBERACION NACIONAL,ARISTIDES ALVARADO MEJIA,"3135,84"
2009,PARTIDO FRENTE FARABUNDO MARTI PARA LA LIBERACION NACIONAL,LUIS ARTURO FERNANDEZ PEÑA,"3110,03"
2009,PARTIDO FRENTE FARABUNDO MARTI PARA LA LIBERACION NACIONAL,MARIA MIRTALA LOPEZ MEJIA,"3100,85"
2009,PARTIDO FRENTE FARABUNDO MARTI PARA LA LIBERACION NACIONAL,WILFREDO EDGARDO PEÑA LOPEZ,"3092,88"
2009,PARTIDO FRENTE FARABUNDO MARTI PARA LA LIBERACION NACIONAL,OSCAR SAMUEL ORTIZ ASCENCIO,"3085,68"
2009,PARTIDO FRENTE FARABUNDO MARTI PARA LA LIBERACION NACIONAL,OSCAR MIRANDA FLAMENCO,3047
2009,PARTIDO FRENTE FARABUNDO MARTI PARA LA LIBERACION NACIONAL,MANUEL ALCIDES GALDAMEZ ARDON,"2926,62"
2009,PARTIDO FRENTE FARABUNDO MARTI PARA LA LIBERACION NACIONAL,MARCO TULIO MEJIA PALMA,"2917,68"
2009,PARTIDO FRENTE FARABUNDO MARTI PARA LA LIBERACION NACIONAL,ALEJANDRO RIVERA,"2868,7"
2009,PARTIDO FRENTE FARABUNDO MARTI PARA LA LIBERACION NACIONAL,MIRIAM HAYDEE ZOMETA MERINO,"2868,61"
2009,PARTIDO FRENTE FARABUNDO MARTI PARA LA LIBERACION NACIONAL,JOSE RICARDO CRUZ,"2835,28"
2009,PARTIDO FRENTE FARABUNDO MARTI PARA LA LIBERACION NACIONAL,JORGE ALBERTO JIMENEZ ORELLANA,"2835,28"
2009,PARTIDO FRENTE FARABUNDO MARTI PARA LA LIBERACION NACIONAL,JOSE SALVADOR ARIAS PEÑATE,"2835,28"
2009,PARTIDO FRENTE FARABUNDO MARTI PARA LA LIBERACION NACIONAL,JUAN GARCIA MELARA,"2835,28"
2009,PARTIDO FRENTE FARABUNDO MARTI PARA LA LIBERACION NACIONAL,OSCAR ANTONIO FERNANDEZ ORELLANA,"2783,04"
2009,PARTIDO FRENTE FARABUNDO MARTI PARA LA LIBERACION NACIONAL,RICARDO ALBERTO IGLESIAS HERRERA,"2783,04"
2009,PARTIDO FRENTE FARABUNDO MARTI PARA LA LIBERACION NACIONAL,SONIA ELIZABETH FARFAN MATA,"2783,04"
2009,PARTIDO FRENTE FARABUNDO MARTI PARA LA LIBERACION NACIONAL,JOSE ATILIO MONTALVO CORDERO,"2783,04"
2009,PARTIDO FRENTE FARABUNDO MARTI PARA LA LIBERACION NACIONAL,JOSE ARNOLDO JIMENEZ GARCIA,2715
2009,PARTIDO FRENTE FARABUNDO MARTI PARA LA LIBERACION NACIONAL,DIMAS ARMANDO RAMOS  CLAROS,"2597,76"
2009,PARTIDO FRENTE FARABUNDO MARTI PARA LA LIBERACION NACIONAL,LETY MENDEZ,"2506,54"
2009,PARTIDO FRENTE FARABUNDO MARTI PARA LA LIBERACION NACIONAL,MAURICIO WILFREDO ESTEBAN ZEPEDA PANAMEÑO,"2422,81"
2009,PARTIDO FRENTE FARABUNDO MARTI PARA LA LIBERACION NACIONAL,MANUEL ANTONIO DE JESUS CARBALLO GONZALEZ,"2317,92"
2009,PARTIDO FRENTE FARABUNDO MARTI PARA LA LIBERACION NACIONAL,ALFREDO SANCHEZ,"2292,94"
2009,PARTIDO FRENTE FARABUNDO MARTI PARA LA LIBERACION NACIONAL,JAIRO EDGARDO GUZMAN FLORES,"2260,8"
2009,PARTIDO FRENTE FARABUNDO MARTI PARA LA LIBERACION NACIONAL,JOSE ANGEL ALVAREZ GALAN,"2246,52"
2009,PARTIDO FRENTE FARABUNDO MARTI PARA LA LIBERACION NACIONAL,ROGER ALBERTO BLANDINO NERIO,2100
2009,PARTIDO FRENTE FARABUNDO MARTI PARA LA LIBERACION NACIONAL,JAIME ALBERTO RECINOS CRESPIN,2064
2009,PARTIDO FRENTE FARABUNDO MARTI PARA LA LIBERACION NACIONAL,ROLANDO MATA FUENTES,"2062,09"
2009,PARTIDO FRENTE FARABUNDO MARTI PARA LA LIBERACION NACIONAL,ANTONIO JUAN JAVIER MARTINEZ ESCOBAR,2000
2009,PARTIDO FRENTE FARABUNDO MARTI PARA LA LIBERACION NACIONAL,SERGIO ANTONIO SOLORZANO SANTOS,"1975,8"
2009,PARTIDO FRENTE FARABUNDO MARTI PARA LA LIBERACION NACIONAL,ANA DAISY CRUZ,"1962,6"
2009,PARTIDO FRENTE FARABUNDO MARTI PARA LA LIBERACION NACIONAL,WILLY ALFONSO GOITIA ARZE,"1958,37"
2009,PARTIDO FRENTE FARABUNDO MARTI PARA LA LIBERACION NACIONAL,SILVIA IDALIA CARTAGENA DE MARMOL,"1950,96"
2009,PARTIDO FRENTE FARABUNDO MARTI PARA LA LIBERACION NACIONAL,DORILA DEL CARMEN ROMERO DURON,"1848,08"
2009,PARTIDO FRENTE FARABUNDO MARTI PARA LA LIBERACION NACIONAL,JAIME ALBERTO ALVARADO CRUZ,"1821,36"
2009,PARTIDO FRENTE FARABUNDO MARTI PARA LA LIBERACION NACIONAL,IRMA MAGDALENA ORTIZ LOPEZ,"1810,42"
2009,PARTIDO FRENTE FARABUNDO MARTI PARA LA LIBERACION NACIONAL,ANGEL RUBEN BENITEZ ANDRADE,"1810,32"
2009,PARTIDO FRENTE FARABUNDO MARTI PARA LA LIBERACION NACIONAL,ARTURO PERLA FERRUFINO,1800
2009,PARTIDO FRENTE FARABUNDO MARTI PARA LA LIBERACION NACIONAL,PATRICIA JANET MUÑOZ,"1798,2"
2009,PARTIDO FRENTE FARABUNDO MARTI PARA LA LIBERACION NACIONAL,MIGUEL ANGEL GOMEZ,"1756,56"
2009,PARTIDO FRENTE FARABUNDO MARTI PARA LA LIBERACION NACIONAL,ALVARO RENATO HUEZO,"1736,16"
2009,PARTIDO FRENTE FARABUNDO MARTI PARA LA LIBERACION NACIONAL,JUAN JOSE BONILLA RODRIGUEZ,"1644,24"
2009,PARTIDO FRENTE FARABUNDO MARTI PARA LA LIBERACION NACIONAL,LUZ ESTRELLA RODRIGUEZ LOPEZ,1623
2009,PARTIDO FRENTE FARABUNDO MARTI PARA LA LIBERACION NACIONAL,NELSON NAPOLEON GARCIA RODRIGUEZ,"1586,41"
2009,PARTIDO FRENTE FARABUNDO MARTI PARA LA LIBERACION NACIONAL,MISAEL MEJIA MEJIA,"1583,99"
2009,PARTIDO FRENTE FARABUNDO MARTI PARA LA LIBERACION NACIONAL,RUTH ELEONORA LOPEZ ALFARO,"1559,82"
2009,PARTIDO FRENTE FARABUNDO MARTI PARA LA LIBERACION NACIONAL,ALBA MARILUNA VALENCIA DE SANTANA,"1558,15"
2009,PARTIDO FRENTE FARABUNDO MARTI PARA LA LIBERACION NACIONAL,JOSE TOMAS MINERO DOMINGUEZ,"1530,84"
2009,PARTIDO FRENTE FARABUNDO MARTI PARA LA LIBERACION NACIONAL,ALBA ELIZABETH MARQUEZ,"1520,96"
2009,PARTIDO FRENTE FARABUNDO MARTI PARA LA LIBERACION NACIONAL,"969 PERSONAS NATURALES CON DONACIONES DEBAJO DE $1,520.85 ","248539,97"
2009,PARTIDO FRENTE FARABUNDO MARTI PARA LA LIBERACION NACIONAL,"5 PERSONAS JURÍDICAS CON DONACIONES DEBAJO DE $5,170.89",7483
2009,PARTIDO DE CONCILIACION NACIONAL,"LUXOR, SOCIEDAD ANONIMA DE CAPITAL VARIABLE",20000
2009,PARTIDO DE CONCILIACION NACIONAL,"CRESE, S. A. DE C. V.",10000
2009,PARTIDO DE CONCILIACION NACIONAL,JULIO EDUARDO MORENO NIÑOS,10000
2009,PARTIDO DE CONCILIACION NACIONAL,FRANCISCO ARMANDO ARIAS RIVERA,10000
2009,PARTIDO DE CONCILIACION NACIONAL,"SERVICIOS MERCANTILES, S.A. DE C.V.",10000
2009,PARTIDO DE CONCILIACION NACIONAL,ASOCIACION AZUCARERA DE EL SALVADOR,10000
2009,PARTIDO DE CONCILIACION NACIONAL,"ELECTRONIC SYSTEMS, S. A. DE C. V.",10000
2009,PARTIDO DE CONCILIACION NACIONAL,WILVER ALEXANDER RIVERA MONGE,7500
2009,PARTIDO DE CONCILIACION NACIONAL,MATILDE ALEJANDRA BARILLAS HUEZO,7100
2009,PARTIDO DE CONCILIACION NACIONAL,JOSE ROMEO AVILES APARICIO,7000
2009,PARTIDO DE CONCILIACION NACIONAL,CIRO ALEXIS ZEPEDA MENJIVAR,6300
2009,PARTIDO DE CONCILIACION NACIONAL,ROMEO ALEXANDER AUERBACH FLORES,6000
2009,PARTIDO DE CONCILIACION NACIONAL,"PRODUCTOS ALIMENTICIOS SELLO DE ORO, S.A. DE C.V.","5786,66"
2009,PARTIDO DE CONCILIACION NACIONAL,RICARDO ANTONIO FUENTES CABRERA,5000
2009,PARTIDO DE CONCILIACION NACIONAL,ALEXANDER HIGINIO MELCHOR LOPEZ,5000
2009,PARTIDO DE CONCILIACION NACIONAL,SONIA ELIZABETH MOLINA DE RODRIGUEZ,5000
2009,PARTIDO DE CONCILIACION NACIONAL,MANUEL ALFONSO RODRIGUEZ SALDAÑA,5000
2009,PARTIDO DE CONCILIACION NACIONAL,JOSE FRANCISCO IRIGOYEN UMANZOR,4600
2009,PARTIDO DE CONCILIACION NACIONAL,ROMEO ERNESTO AVILES BELTRAN,4000
2009,PARTIDO DE CONCILIACION NACIONAL,ANA PATRICIA RODRIGUEZ DE ALFARO,3500
2009,PARTIDO DE CONCILIACION NACIONAL,VILMA CAROLINA FLORES DE GARCIA,2700
2009,PARTIDO DE CONCILIACION NACIONAL,FABIO WILFRIDO ALFARO ALVARENGA,2500
2009,PARTIDO DE CONCILIACION NACIONAL,ANA LORENA AVILES CERNA,2000
2009,PARTIDO DE CONCILIACION NACIONAL,"2 PERSONAS NATURALES CON DONACIONES DEBAJO DE $1,520.85 ",1100
2009,PARTIDO DE CONCILIACION NACIONAL,"7 PERSONAS JURÍDICAS CON DONACIONES DEBAJO DE $5,170.89","13288,05"
2009,PARTIDO DEMOCRATA CRISTIANO PDC,"INDESI, S. A. DE C. V.",150000
2009,PARTIDO DEMOCRATA CRISTIANO PDC,FUNDACION SAN NICOLAS,90000
2009,PARTIDO DEMOCRATA CRISTIANO PDC,EDUCACION  INTEGRAL S.A.  DE  C.V.,50000
2009,PARTIDO DEMOCRATA CRISTIANO PDC,"PARKER SOTO ABOGADOS, S. A. DE C. V.",40000
2009,PARTIDO DEMOCRATA CRISTIANO PDC,"INVERSIONES SALMI, S.A. DE C.V.",40000
2009,PARTIDO DEMOCRATA CRISTIANO PDC,GUILLERMO ESCOBAR HERNANDEZ,35000
2009,PARTIDO DEMOCRATA CRISTIANO PDC,"DURACION EN ELECTRODOMESTICOS, S.A. DE C.V.","25351,25"
2009,PARTIDO DEMOCRATA CRISTIANO PDC,"ZATOUCHE, S. A. DE C. V.","19135,68"
2009,PARTIDO DEMOCRATA CRISTIANO PDC,MAURICIO HERNANDEZ PEREZ,12000
2009,PARTIDO DEMOCRATA CRISTIANO PDC,"LA PIRAMIDE, S.A. DE C.V.",10500
2009,PARTIDO DEMOCRATA CRISTIANO PDC,GUSTAVO ENRIQUE PARKER SOTO,10000
2009,PARTIDO DEMOCRATA CRISTIANO PDC,FELIPE GERARDO PARKER SOTO,10000
2009,PARTIDO DEMOCRATA CRISTIANO PDC,MATILDE ALEJANDRA BARILLAS HUEZO,8000
2009,PARTIDO DEMOCRATA CRISTIANO PDC,"LABORATORIOS SUIZOS, S. A. DE C. V.",7500
2009,PARTIDO DEMOCRATA CRISTIANO PDC,"FARMACIA SAN NICOLAS, S.A. DE C.V.",7500
2009,PARTIDO DEMOCRATA CRISTIANO PDC,MARTIR ARNOLDO MARIN VILLANUEVA,6940
2009,PARTIDO DEMOCRATA CRISTIANO PDC,JOSE ANTONIO HERRERA MARTINEZ,6822
2009,PARTIDO DEMOCRATA CRISTIANO PDC,JOSE FROILAN ESCALANTE GUERRA,5000
2009,PARTIDO DEMOCRATA CRISTIANO PDC,NELSON OMAR GUERRA TRINIDAD,5000
2009,PARTIDO DEMOCRATA CRISTIANO PDC,RODOLFO ANTONIO PARKER SOTO,5000
2009,PARTIDO DEMOCRATA CRISTIANO PDC,ANA PATRICIA MANCIA DE NASSAR,5000
2009,PARTIDO DEMOCRATA CRISTIANO PDC,CARLOS ERNESTO MORALES URRUTIA,5000
2009,PARTIDO DEMOCRATA CRISTIANO PDC,LUIS ANTONIO NASSAR HANDAL,5000
2009,PARTIDO DEMOCRATA CRISTIANO PDC,CARLOS ROLANDO HERRARTE RIVAS,4000
2009,PARTIDO DEMOCRATA CRISTIANO PDC,MILAGRO DE LA PAZ ELIAS,4000
2009,PARTIDO DEMOCRATA CRISTIANO PDC,LUISA CAROLINA CORPEÑO CASTILLO,3000
2009,PARTIDO DEMOCRATA CRISTIANO PDC,LUIS FERNANDO VICENTE VEGA GONZALEZ,3000
2009,PARTIDO DEMOCRATA CRISTIANO PDC,JOSE NAPOLEON DOMINGUEZ ESCOBAR,2938
2009,PARTIDO DEMOCRATA CRISTIANO PDC,SANTOS GUEVARA,2672
2009,PARTIDO DEMOCRATA CRISTIANO PDC,EDWIN PATRICIO NUÑEZ ALGUERA,2400
2009,PARTIDO DEMOCRATA CRISTIANO PDC,MARGARITA RUIZ DE VEGA,2000
2009,PARTIDO DEMOCRATA CRISTIANO PDC,MOISES ANTONIO ROSALES DELGADO,2000
2009,PARTIDO DEMOCRATA CRISTIANO PDC,JUANA ISOLINA ALAS DE MARIN,2000
2009,PARTIDO DEMOCRATA CRISTIANO PDC,RIGOBERTO CARLOS CLAROS CLAROS,2000
2009,PARTIDO DEMOCRATA CRISTIANO PDC,BLANCA MARIBEL OLIVA DE NUÑEZ,1800
2009,PARTIDO DEMOCRATA CRISTIANO PDC,"120 PERSONAS NATURALES CON DONACIONES DEBAJO DE $1,520.85 ","26178,73"
2009,PARTIDO DEMOCRATA CRISTIANO PDC,"4 PERSONAS JURÍDICAS CON DONACIONES DEBAJO DE $5,170.89","10759,31"
2009,PARTIDO ALIANZA REPUBLICANA NACIONALISTA,"DISTRIBUIDORA DE AUTOMOVILES, S.A. DE C.V.",344156
2009,PARTIDO ALIANZA REPUBLICANA NACIONALISTA,"COMPAÑIA AZUCARERA SALVADOREÑA, S. A. DE C. V.",262500
2009,PARTIDO ALIANZA REPUBLICANA NACIONALISTA,"AVICOLA SALVADOREÑA, S.A. DE C.V.",57000
2009,PARTIDO ALIANZA REPUBLICANA NACIONALISTA,"CAMPAÑA, S. A. DE C.V.",53000
2009,PARTIDO ALIANZA REPUBLICANA NACIONALISTA,"COMERCIAL EXPORTADORA, S.A. DE C.V.",16000
2009,PARTIDO ALIANZA REPUBLICANA NACIONALISTA,"GALVANIZADORA INDUSTRIAL SALVADOREÑA,SA DE CV GALVANIS, S.A. DE C.V.",12000
2009,PARTIDO ALIANZA REPUBLICANA NACIONALISTA,"INVERSIONES MAXIMA, S.A. DE C.V.",12000
2009,PARTIDO ALIANZA REPUBLICANA NACIONALISTA,"BANCO AGRICOLA, S.A.",12000
2009,PARTIDO ALIANZA REPUBLICANA NACIONALISTA,MARIA FLORENCE GLADYS HILL DE MATHIES,10000
2009,PARTIDO ALIANZA REPUBLICANA NACIONALISTA,"DROGUERIA AMERICANA, S.A. DE C.V.",10000
2009,PARTIDO ALIANZA REPUBLICANA NACIONALISTA,"J. HILL Y COMPAÑIA, S.A. DE C.V.",10000
2009,PARTIDO ALIANZA REPUBLICANA NACIONALISTA,ELIAS ANTONIO SACA GONZALEZ,10000
2009,PARTIDO ALIANZA REPUBLICANA NACIONALISTA,"BIANCHI Y ASOCIADOS,S.A. DE C.V. OGILVY EL SALVADOR",9200
2009,PARTIDO ALIANZA REPUBLICANA NACIONALISTA,"CENTURION INVERSIONES, S.A. DE C.V.",8500
2009,PARTIDO ALIANZA REPUBLICANA NACIONALISTA,"PRODUCTOS ALIMENTICIOS BOCADELI, S. A. DE C. V.",8500
2009,PARTIDO ALIANZA REPUBLICANA NACIONALISTA,"RECEPTOR COMUNICACION INTEGRADA, S. A. DE C. V.",8500
2009,PARTIDO ALIANZA REPUBLICANA NACIONALISTA,"INDUSTRIAL QUIMICA SALVADOREÑA, S.A. DE C.V.",8500
2009,PARTIDO ALIANZA REPUBLICANA NACIONALISTA,JOSE LUIS SACA MELENDEZ,8500
2009,PARTIDO ALIANZA REPUBLICANA NACIONALISTA,"DATUM, S.A. DE C.V.",7000
2009,PARTIDO ALIANZA REPUBLICANA NACIONALISTA,"AGROPECUARIA MONTE GRANDE, S. A. DE C. V.",7000
2009,PARTIDO ALIANZA REPUBLICANA NACIONALISTA,"INVERSIONES Y DESARROLLOS EMPRESARIALES, S.A DE C.V.",6600
2009,PARTIDO ALIANZA REPUBLICANA NACIONALISTA,"NEJAPA POWER COMPANY, S.A.",6500
2009,PARTIDO ALIANZA REPUBLICANA NACIONALISTA,"INVERCON, S.A. DE C.V.",6000
2009,PARTIDO ALIANZA REPUBLICANA NACIONALISTA,"FERTILIZANTES DE C.A. (EL SALVADOR), S.A.",6000
2009,PARTIDO ALIANZA REPUBLICANA NACIONALISTA,"UNIFERSA-DISAGRO, S.A. DE C.V.",6000
2009,PARTIDO ALIANZA REPUBLICANA NACIONALISTA,"CHC CONSULTORIA I GESTIO, S.A., SUCURSAL EL SALVADOR",5400
2009,PARTIDO ALIANZA REPUBLICANA NACIONALISTA,MOISES CASTRO MACEDA,5000
2009,PARTIDO ALIANZA REPUBLICANA NACIONALISTA,SAMIA YODITH DAABUB HASBUN,5000
2009,PARTIDO ALIANZA REPUBLICANA NACIONALISTA,JUAN JOSE DOMENECH SESA,5000
2009,PARTIDO ALIANZA REPUBLICANA NACIONALISTA,JOSE MAURICIO FELIPE SAMAYOA RIVAS,4000
2009,PARTIDO ALIANZA REPUBLICANA NACIONALISTA,ROBERTO ADRIAN ORTIZ BARRIERE,3750
2009,PARTIDO ALIANZA REPUBLICANA NACIONALISTA,FRANCISCO ARMANDO ARIAS RIVERA,3000
2009,PARTIDO ALIANZA REPUBLICANA NACIONALISTA,MARIANO GIANCARLO SALVADOR PITTA VAIRO,2500
2009,PARTIDO ALIANZA REPUBLICANA NACIONALISTA,ASOCIACION AZUCARERA DE EL SALVADOR,2500
2009,PARTIDO ALIANZA REPUBLICANA NACIONALISTA,FABRIZIO NICOLA PITTA VAIRO,2500
2009,PARTIDO ALIANZA REPUBLICANA NACIONALISTA,ROBERTO HENDERSON MURRAY MEZA,2000
2009,PARTIDO ALIANZA REPUBLICANA NACIONALISTA,RAFAEL FEDERICO CASTELLANOS CALDERON,2000
2009,PARTIDO ALIANZA REPUBLICANA NACIONALISTA,RODRIGO ERNESTO ORTIZ BARRIERE,2000
2009,PARTIDO ALIANZA REPUBLICANA NACIONALISTA,ALBINA YOLANDA TURCIOS VELASQUEZ,2000
2009,PARTIDO ALIANZA REPUBLICANA NACIONALISTA,JAIME SALVADOR RIVERA ANDINO,1800
2009,PARTIDO ALIANZA REPUBLICANA NACIONALISTA,RODRIGO ALFONSO ANTONIO BRITO LARA,1700
2009,PARTIDO ALIANZA REPUBLICANA NACIONALISTA,CARLOS JOSE GUERRERO ZELAYA,1700
2009,PARTIDO ALIANZA REPUBLICANA NACIONALISTA,JOSE GUILLERMO MAZA BRIZUELA,1600
2009,PARTIDO ALIANZA REPUBLICANA NACIONALISTA,"354 PERSONAS NATURALES CON DONACIONES DEBAJO DE $1,520.85 ","93630,01"
2009,PARTIDO ALIANZA REPUBLICANA NACIONALISTA,"203 PERSONAS JURÍDICAS CON DONACIONES DEBAJO DE $5,170.89","245458,3"
2009,PARTIDO ALIANZA REPUBLICANA NACIONALISTA,UNIVERSIDAD FRANCISCO GAVIDIA,3500
2009,PARTIDO DE LIBERACIÓN NACIONAL PLN,DAYSI CAROLINA MARQUINA DE GOMEZ,7000
