Año,Partido,NOMBRE DONANTE,MONTO 
2010,PARTIDO FRENTE FARABUNDO MARTI PARA LA LIBERACION NACIONAL,OTHON SIGFRIDO REYES MORALES,"28668,35"
2010,PARTIDO FRENTE FARABUNDO MARTI PARA LA LIBERACION NACIONAL,FRANCISCO ROBERTO LORENZANA DURAN,"16419,12"
2010,PARTIDO FRENTE FARABUNDO MARTI PARA LA LIBERACION NACIONAL,LORENA GUADALUPE PEÑA MENDOZA,"15219,12"
2010,PARTIDO FRENTE FARABUNDO MARTI PARA LA LIBERACION NACIONAL,MEDARDO GONZALEZ TREJO,"13634,84"
2010,PARTIDO FRENTE FARABUNDO MARTI PARA LA LIBERACION NACIONAL,IRMA LOURDES PALACIOS VASQUEZ,"13485,24"
2010,PARTIDO FRENTE FARABUNDO MARTI PARA LA LIBERACION NACIONAL,KARINA IVETTE SOSA,"12308,86"
2010,PARTIDO FRENTE FARABUNDO MARTI PARA LA LIBERACION NACIONAL,SALVADOR SANCHEZ CEREN,12240
2010,PARTIDO FRENTE FARABUNDO MARTI PARA LA LIBERACION NACIONAL,JORGE SCHAFIK HANDAL VEGA  SILVA,"11757,48"
2010,PARTIDO FRENTE FARABUNDO MARTI PARA LA LIBERACION NACIONAL,ORESTES FREDESMAN ORTEZ ANDRADE,"10644,84"
2010,PARTIDO FRENTE FARABUNDO MARTI PARA LA LIBERACION NACIONAL,JACKELINE NOEMI RIVERA AVALOS,"10478,47"
2010,PARTIDO FRENTE FARABUNDO MARTI PARA LA LIBERACION NACIONAL,HORTENSIA MARGARITA LOPEZ QUINTANA,"10169,19"
2010,PARTIDO FRENTE FARABUNDO MARTI PARA LA LIBERACION NACIONAL,EMMA JULIA FABIAN HERNANDEZ,"9985,94"
2010,PARTIDO FRENTE FARABUNDO MARTI PARA LA LIBERACION NACIONAL,NERY ARELY DIAZ ARTERO,"9907,34"
2010,PARTIDO FRENTE FARABUNDO MARTI PARA LA LIBERACION NACIONAL,JOSE ALVARO CORNEJO MENA,"9854,09"
2010,PARTIDO FRENTE FARABUNDO MARTI PARA LA LIBERACION NACIONAL,NORMA FIDELIA GUEVARA DE RAMIRIOS,"9843,64"
2010,PARTIDO FRENTE FARABUNDO MARTI PARA LA LIBERACION NACIONAL,SONIA MARGARITA RODRIGUEZ SIGUENZA,"9746,09"
2010,PARTIDO FRENTE FARABUNDO MARTI PARA LA LIBERACION NACIONAL,INMAR ROLANDO REYES,"9665,09"
2010,PARTIDO FRENTE FARABUNDO MARTI PARA LA LIBERACION NACIONAL,GUILLERMO ANTONIO OLIVO MENDEZ,"9505,84"
2010,PARTIDO FRENTE FARABUNDO MARTI PARA LA LIBERACION NACIONAL,SANTIAGO FLORES ALFARO,"9390,09"
2010,PARTIDO FRENTE FARABUNDO MARTI PARA LA LIBERACION NACIONAL,MARIA MARGARITA VELADO PUENTES,"9300,24"
2010,PARTIDO FRENTE FARABUNDO MARTI PARA LA LIBERACION NACIONAL,GASPAR ARMANDO PORTILLO BENITEZ,"9298,84"
2010,PARTIDO FRENTE FARABUNDO MARTI PARA LA LIBERACION NACIONAL,BENITO ANTONIO LARA FERNANDEZ,"9277,24"
2010,PARTIDO FRENTE FARABUNDO MARTI PARA LA LIBERACION NACIONAL,ANTONIO ECHEVERRIA VELIZ,"9222,04"
2010,PARTIDO FRENTE FARABUNDO MARTI PARA LA LIBERACION NACIONAL,BLANCA NOEMI COTO ESTRADA,"9196,04"
2010,PARTIDO FRENTE FARABUNDO MARTI PARA LA LIBERACION NACIONAL,CARLOS CORTEZ HERNANDEZ,"9096,84"
2010,PARTIDO FRENTE FARABUNDO MARTI PARA LA LIBERACION NACIONAL,HUGO ROGER MARTINEZ BONILLA,8910
2010,PARTIDO FRENTE FARABUNDO MARTI PARA LA LIBERACION NACIONAL,ZOILA BEATRIZ QUIJADA SOLIS,"8874,84"
2010,PARTIDO FRENTE FARABUNDO MARTI PARA LA LIBERACION NACIONAL,JAIME GILBERTO VALDES HERNANDEZ,"8761,84"
2010,PARTIDO FRENTE FARABUNDO MARTI PARA LA LIBERACION NACIONAL,NOE DE JESUS RODRIGUEZ SOLIS,"8689,24"
2010,PARTIDO FRENTE FARABUNDO MARTI PARA LA LIBERACION NACIONAL,YOHALMO EDMUNDO CABRERA CHACON,"8506,02"
2010,PARTIDO FRENTE FARABUNDO MARTI PARA LA LIBERACION NACIONAL,GILBERTO RIVERA MEJIA,"8505,84"
2010,PARTIDO FRENTE FARABUNDO MARTI PARA LA LIBERACION NACIONAL,GUILLERMO FRANCISCO MATA BENNETT,"8505,84"
2010,PARTIDO FRENTE FARABUNDO MARTI PARA LA LIBERACION NACIONAL,RAMON ARISTIDES VALENCIA ARANA,"8505,84"
2010,PARTIDO FRENTE FARABUNDO MARTI PARA LA LIBERACION NACIONAL,DAVID RODRIGUEZ RIVERA,"8505,84"
2010,PARTIDO FRENTE FARABUNDO MARTI PARA LA LIBERACION NACIONAL,LUIS ALBERTO CORVERA RIVAS,"8505,84"
2010,PARTIDO FRENTE FARABUNDO MARTI PARA LA LIBERACION NACIONAL,ANA DAYSI VILLALOBOS MEMBREÑO,"8505,84"
2010,PARTIDO FRENTE FARABUNDO MARTI PARA LA LIBERACION NACIONAL,RICARDO BLADIMIR GONZALEZ,"8505,84"
2010,PARTIDO FRENTE FARABUNDO MARTI PARA LA LIBERACION NACIONAL,HUMBERTO CENTENO NAJARRO,"6853,25"
2010,PARTIDO FRENTE FARABUNDO MARTI PARA LA LIBERACION NACIONAL,EDUARDO ALFONSO LINARES RIVERA,6000
2010,PARTIDO FRENTE FARABUNDO MARTI PARA LA LIBERACION NACIONAL,JOSE MANUEL MELGAR HENRIQUEZ,"5784,84"
2010,PARTIDO FRENTE FARABUNDO MARTI PARA LA LIBERACION NACIONAL,ELVIA VIOLETA MENJIVAR ESCALANTE,4800
2010,PARTIDO FRENTE FARABUNDO MARTI PARA LA LIBERACION NACIONAL,EUGENIO CHICAS MARTINEZ,"4582,92"
2010,PARTIDO FRENTE FARABUNDO MARTI PARA LA LIBERACION NACIONAL,JORGE ALBERTO JIMENEZ ORELLANA,"4352,17"
2010,PARTIDO FRENTE FARABUNDO MARTI PARA LA LIBERACION NACIONAL,JOSE LEONEL VASQUEZ BUCARO,4320
2010,PARTIDO FRENTE FARABUNDO MARTI PARA LA LIBERACION NACIONAL,GLORIA MARIA ANAYA PERLA,4320
2010,PARTIDO FRENTE FARABUNDO MARTI PARA LA LIBERACION NACIONAL,NIDIA DIAZ,4320
2010,PARTIDO FRENTE FARABUNDO MARTI PARA LA LIBERACION NACIONAL,TOMAS CHAVEZ ALARCON,"4174,8"
2010,PARTIDO FRENTE FARABUNDO MARTI PARA LA LIBERACION NACIONAL,CARLOS ALFREDO CASTANEDA MAGAÑA,"4042,08"
2010,PARTIDO FRENTE FARABUNDO MARTI PARA LA LIBERACION NACIONAL,JAIME EDGARDO JUAREZ,"3986,76"
2010,PARTIDO FRENTE FARABUNDO MARTI PARA LA LIBERACION NACIONAL,RENE AMILCAR CLAROS,"3986,76"
2010,PARTIDO FRENTE FARABUNDO MARTI PARA LA LIBERACION NACIONAL,FRANCISCO SUC. POLANCO ESTRADA,"3940,8"
2010,PARTIDO FRENTE FARABUNDO MARTI PARA LA LIBERACION NACIONAL,JORGE GUILLERMO E. SOL PEREZ,"3903,84"
2010,PARTIDO FRENTE FARABUNDO MARTI PARA LA LIBERACION NACIONAL,FRANKLIN DONOVAN PEREZ HERNANDEZ,3900
2010,PARTIDO FRENTE FARABUNDO MARTI PARA LA LIBERACION NACIONAL,NELSON NAPOLEON GARCIA RODRIGUEZ,"3824,01"
2010,PARTIDO FRENTE FARABUNDO MARTI PARA LA LIBERACION NACIONAL,LETY MENDEZ,3794
2010,PARTIDO FRENTE FARABUNDO MARTI PARA LA LIBERACION NACIONAL,HERBERTH NESTOR MENJIVAR AMAYA,"3743,24"
2010,PARTIDO FRENTE FARABUNDO MARTI PARA LA LIBERACION NACIONAL,MAURICIO WILFREDO ESTEBAN ZEPEDA PANAMEÑO,"3718,39"
2010,PARTIDO FRENTE FARABUNDO MARTI PARA LA LIBERACION NACIONAL,AMILCAR EFREN CARDONA MONTERROSA,"3683,76"
2010,PARTIDO FRENTE FARABUNDO MARTI PARA LA LIBERACION NACIONAL,HUGO MOLINA RODRIGUEZ,"3659,28"
2010,PARTIDO FRENTE FARABUNDO MARTI PARA LA LIBERACION NACIONAL,IRMA SEGUNDA AMAYA ECHEVERRIA,"3642,72"
2010,PARTIDO FRENTE FARABUNDO MARTI PARA LA LIBERACION NACIONAL,JOSE EBANAN QUINTANILLA GOMEZ,"3588,96"
2010,PARTIDO FRENTE FARABUNDO MARTI PARA LA LIBERACION NACIONAL,MIRIAM HAYDEE ZOMETA MERINO,"3553,98"
2010,PARTIDO FRENTE FARABUNDO MARTI PARA LA LIBERACION NACIONAL,ARISTIDES ALVARADO MEJIA,3516
2010,PARTIDO FRENTE FARABUNDO MARTI PARA LA LIBERACION NACIONAL,FELIPE VARGAS ORTIZ,"3500,04"
2010,PARTIDO FRENTE FARABUNDO MARTI PARA LA LIBERACION NACIONAL,CALIXTO MEJIA HERNANDEZ,"3470,3"
2010,PARTIDO FRENTE FARABUNDO MARTI PARA LA LIBERACION NACIONAL,MANUEL ALCIDES GALDAMEZ ARDON,"3412,44"
2010,PARTIDO FRENTE FARABUNDO MARTI PARA LA LIBERACION NACIONAL,OSCAR MIRANDA FLAMENCO,"3412,44"
2010,PARTIDO FRENTE FARABUNDO MARTI PARA LA LIBERACION NACIONAL,MARIA MIRTALA LOPEZ MEJIA,3297
2010,PARTIDO FRENTE FARABUNDO MARTI PARA LA LIBERACION NACIONAL,ALEJANDRO RIVERA,3297
2010,PARTIDO FRENTE FARABUNDO MARTI PARA LA LIBERACION NACIONAL,JOSE ATILIO MONTALVO CORDERO,3297
2010,PARTIDO FRENTE FARABUNDO MARTI PARA LA LIBERACION NACIONAL,SONIA ELIZABETH FARFAN MATA,3297
2010,PARTIDO FRENTE FARABUNDO MARTI PARA LA LIBERACION NACIONAL,RICARDO ALBERTO IGLESIAS HERRERA,3297
2010,PARTIDO FRENTE FARABUNDO MARTI PARA LA LIBERACION NACIONAL,OSCAR ANTONIO FERNANDEZ ORELLANA,3297
2010,PARTIDO FRENTE FARABUNDO MARTI PARA LA LIBERACION NACIONAL,ARGENTINA GARCIA VENTURA,3297
2010,PARTIDO FRENTE FARABUNDO MARTI PARA LA LIBERACION NACIONAL,UWUALDO ABRAHAM PEÑA LUCERO,"3272,15"
2010,PARTIDO FRENTE FARABUNDO MARTI PARA LA LIBERACION NACIONAL,JOSE ARNOLDO JIMENEZ GARCIA,3258
2010,PARTIDO FRENTE FARABUNDO MARTI PARA LA LIBERACION NACIONAL,RODOLFO NICOLAS TEJADA NOYOLA,3240
2010,PARTIDO FRENTE FARABUNDO MARTI PARA LA LIBERACION NACIONAL,LIDUVINA DEL CARMEN MAGARIN DE ESPERANZA,3240
2010,PARTIDO FRENTE FARABUNDO MARTI PARA LA LIBERACION NACIONAL,JOSE FRANCISCO CUBIAS QUINTANILLA,"3238,73"
2010,PARTIDO FRENTE FARABUNDO MARTI PARA LA LIBERACION NACIONAL,LEONEL ARTURO MEZA LINARES,3156
2010,PARTIDO FRENTE FARABUNDO MARTI PARA LA LIBERACION NACIONAL,OSCAR SAMUEL ORTIZ ASCENCIO,"3085,68"
2010,PARTIDO FRENTE FARABUNDO MARTI PARA LA LIBERACION NACIONAL,LUIS FRANCISCO LOPEZ GUZMAN,"2980,42"
2010,PARTIDO FRENTE FARABUNDO MARTI PARA LA LIBERACION NACIONAL,JOSE CAMILO RODRIGUEZ,2970
2010,PARTIDO FRENTE FARABUNDO MARTI PARA LA LIBERACION NACIONAL,ROLANDO MATA FUENTES,"2923,11"
2010,PARTIDO FRENTE FARABUNDO MARTI PARA LA LIBERACION NACIONAL,WILFREDO EDGARDO PEÑA LOPEZ,"2709,28"
2010,PARTIDO FRENTE FARABUNDO MARTI PARA LA LIBERACION NACIONAL,MISAEL MEJIA MEJIA,"2684,82"
2010,PARTIDO FRENTE FARABUNDO MARTI PARA LA LIBERACION NACIONAL,GLADIS MARINA LANDAVERDE PAREDES,"2598,46"
2010,PARTIDO FRENTE FARABUNDO MARTI PARA LA LIBERACION NACIONAL,DIMAS ARMANDO RAMOS  CLAROS,"2597,76"
2010,PARTIDO FRENTE FARABUNDO MARTI PARA LA LIBERACION NACIONAL,RAUL OMAR CUELLAR,"2503,84"
2010,PARTIDO FRENTE FARABUNDO MARTI PARA LA LIBERACION NACIONAL,VILMA LILIAM SORTO DE BENAVIDES,"2426,75"
2010,PARTIDO FRENTE FARABUNDO MARTI PARA LA LIBERACION NACIONAL,KARLA GICELA ABREGO CACERES,"2402,82"
2010,PARTIDO FRENTE FARABUNDO MARTI PARA LA LIBERACION NACIONAL,NORMA CRISTINA CORNEJO AMAYA,"2402,82"
2010,PARTIDO FRENTE FARABUNDO MARTI PARA LA LIBERACION NACIONAL,NELSON MAURICIO ANCHETA FLORES,"2283,27"
2010,PARTIDO FRENTE FARABUNDO MARTI PARA LA LIBERACION NACIONAL,SAUL SANCHEZ HERRERA,2280
2010,PARTIDO FRENTE FARABUNDO MARTI PARA LA LIBERACION NACIONAL,MIGUEL ANGEL SAENZ VARELA,"2262,96"
2010,PARTIDO FRENTE FARABUNDO MARTI PARA LA LIBERACION NACIONAL,JAIRO EDGARDO GUZMAN FLORES,"2260,8"
2010,PARTIDO FRENTE FARABUNDO MARTI PARA LA LIBERACION NACIONAL,JOSE ANGEL ALVAREZ GALAN,"2246,52"
2010,PARTIDO FRENTE FARABUNDO MARTI PARA LA LIBERACION NACIONAL,NINFA FRANCISCA SANTOS DE QUIJADA,"2230,8"
2010,PARTIDO FRENTE FARABUNDO MARTI PARA LA LIBERACION NACIONAL,IRMA MAGDALENA ORTIZ LOPEZ,"2132,8"
2010,PARTIDO FRENTE FARABUNDO MARTI PARA LA LIBERACION NACIONAL,WALTER EDUARDO DURAN MARTINEZ,"2126,6"
2010,PARTIDO FRENTE FARABUNDO MARTI PARA LA LIBERACION NACIONAL,ROGER ALBERTO BLANDINO NERIO,2100
2010,PARTIDO FRENTE FARABUNDO MARTI PARA LA LIBERACION NACIONAL,LORENZO PORTILLO AMAYA,2079
2010,PARTIDO FRENTE FARABUNDO MARTI PARA LA LIBERACION NACIONAL,TITO ANTONIO BAZAN VELASQUEZ,"2074,8"
2010,PARTIDO FRENTE FARABUNDO MARTI PARA LA LIBERACION NACIONAL,JAIME ALBERTO RECINOS CRESPIN,2064
2010,PARTIDO FRENTE FARABUNDO MARTI PARA LA LIBERACION NACIONAL,DORIS GISELA YAMILETH ALVARENGA ROSALES,"2005,68"
2010,PARTIDO FRENTE FARABUNDO MARTI PARA LA LIBERACION NACIONAL,ANA XOCHITL MARCHELLI CANALES,"2005,68"
2010,PARTIDO FRENTE FARABUNDO MARTI PARA LA LIBERACION NACIONAL,IRMA PATRICIA IRAHETA CRUZ,"2005,68"
2010,PARTIDO FRENTE FARABUNDO MARTI PARA LA LIBERACION NACIONAL,ALBA ELIZABETH MARQUEZ,"1981,44"
2010,PARTIDO FRENTE FARABUNDO MARTI PARA LA LIBERACION NACIONAL,SERGIO ANTONIO SOLORZANO SANTOS,"1975,8"
2010,PARTIDO FRENTE FARABUNDO MARTI PARA LA LIBERACION NACIONAL,WALTER ERNESTO MEJIA GRANADOS,"1972,75"
2010,PARTIDO FRENTE FARABUNDO MARTI PARA LA LIBERACION NACIONAL,ANA DAISY CRUZ,"1962,6"
2010,PARTIDO FRENTE FARABUNDO MARTI PARA LA LIBERACION NACIONAL,SILVIA IDALIA CARTAGENA DE MARMOL,"1950,96"
2010,PARTIDO FRENTE FARABUNDO MARTI PARA LA LIBERACION NACIONAL,JOSE VLADIMIR CENTENO LOPEZ,1950
2010,PARTIDO FRENTE FARABUNDO MARTI PARA LA LIBERACION NACIONAL,RHINA LILIAN CLARA SALINAS,"1926,88"
2010,PARTIDO FRENTE FARABUNDO MARTI PARA LA LIBERACION NACIONAL,YANCI GUADALUPE URBINA GONZALEZ,1900
2010,PARTIDO FRENTE FARABUNDO MARTI PARA LA LIBERACION NACIONAL,ALFREDO SANCHEZ,"1876,8"
2010,PARTIDO FRENTE FARABUNDO MARTI PARA LA LIBERACION NACIONAL,JULIA NOEMY AQUINO MEJIA,"1876,8"
2010,PARTIDO FRENTE FARABUNDO MARTI PARA LA LIBERACION NACIONAL,MIGUEL ANTONIO BLANDINO NERIO,"1876,8"
2010,PARTIDO FRENTE FARABUNDO MARTI PARA LA LIBERACION NACIONAL,JOSE GUILLERMO SUNCIN CARCAMO,"1876,8"
2010,PARTIDO FRENTE FARABUNDO MARTI PARA LA LIBERACION NACIONAL,CARLA MABEL ALVANES AMAYA,"1871,52"
2010,PARTIDO FRENTE FARABUNDO MARTI PARA LA LIBERACION NACIONAL,PATRICIA JANET MUÑOZ,"1871,52"
2010,PARTIDO FRENTE FARABUNDO MARTI PARA LA LIBERACION NACIONAL,JAIME ALBERTO ALVARADO CRUZ,1865
2010,PARTIDO FRENTE FARABUNDO MARTI PARA LA LIBERACION NACIONAL,IRIS MARISOL GUERRA HENRIQUEZ,"1863,33"
2010,PARTIDO FRENTE FARABUNDO MARTI PARA LA LIBERACION NACIONAL,JOSE JOAQUIN AGUILAR JOVEL,"1827,24"
2010,PARTIDO FRENTE FARABUNDO MARTI PARA LA LIBERACION NACIONAL,MARIELA BEATRIZ CAMPOS DE MELGAR,"1814,4"
2010,PARTIDO FRENTE FARABUNDO MARTI PARA LA LIBERACION NACIONAL,EDUARDO ALBERTO HERNANDEZ CRUZ,"1814,4"
2010,PARTIDO FRENTE FARABUNDO MARTI PARA LA LIBERACION NACIONAL,SANTOS ANDRES VASQUEZ MOLINA,"1814,4"
2010,PARTIDO FRENTE FARABUNDO MARTI PARA LA LIBERACION NACIONAL,MANUEL ANTONIO DE JESUS CARBALLO GONZALEZ,"1813,16"
2010,PARTIDO FRENTE FARABUNDO MARTI PARA LA LIBERACION NACIONAL,SALVADOR ANTONIO SANCHEZ VILLALTA,1800
2010,PARTIDO FRENTE FARABUNDO MARTI PARA LA LIBERACION NACIONAL,DELMY CAROLINA VASQUEZ ALAS,1800
2010,PARTIDO FRENTE FARABUNDO MARTI PARA LA LIBERACION NACIONAL,FRANCISCO HERRERA,"1777,99"
2010,PARTIDO FRENTE FARABUNDO MARTI PARA LA LIBERACION NACIONAL,MIGUEL ANGEL GOMEZ,"1756,56"
2010,PARTIDO FRENTE FARABUNDO MARTI PARA LA LIBERACION NACIONAL,MAURICIO ULISES SANTAMARIA JAIME,"1736,94"
2010,PARTIDO FRENTE FARABUNDO MARTI PARA LA LIBERACION NACIONAL,LAZARO ANTONIO FLORES PAREDES,"1734,6"
2010,PARTIDO FRENTE FARABUNDO MARTI PARA LA LIBERACION NACIONAL,RUTH ELEONORA LOPEZ ALFARO,"1706,16"
2010,PARTIDO FRENTE FARABUNDO MARTI PARA LA LIBERACION NACIONAL,YEYMI ELIZABETT MUÑOZ MORAN,"1702,03"
2010,PARTIDO FRENTE FARABUNDO MARTI PARA LA LIBERACION NACIONAL,KELLY MARIBEL AREVALO RIVERA,1680
2010,PARTIDO FRENTE FARABUNDO MARTI PARA LA LIBERACION NACIONAL,STEVEN JORGE KAWAS YUJA,"1678,8"
2010,PARTIDO FRENTE FARABUNDO MARTI PARA LA LIBERACION NACIONAL,MIRNA EVELIA MENENDEZ CONTRERAS,"1670,88"
2010,PARTIDO FRENTE FARABUNDO MARTI PARA LA LIBERACION NACIONAL,DAVID FERNANDO RAUDA PERAZA,"1670,88"
2010,PARTIDO FRENTE FARABUNDO MARTI PARA LA LIBERACION NACIONAL,JOSE GUILLERMO RIVERA ESCOBAR,"1670,88"
2010,PARTIDO FRENTE FARABUNDO MARTI PARA LA LIBERACION NACIONAL,SELSO ANTONIO RIVERA ESCOBAR,"1670,88"
2010,PARTIDO FRENTE FARABUNDO MARTI PARA LA LIBERACION NACIONAL,JUAN JOSE BONILLA RODRIGUEZ,"1644,24"
2010,PARTIDO FRENTE FARABUNDO MARTI PARA LA LIBERACION NACIONAL,GRACIELA ALEJANDRA GAMEZ ZELADA,"1639,81"
2010,PARTIDO FRENTE FARABUNDO MARTI PARA LA LIBERACION NACIONAL,ALEXIS VIOLETA MUÑOZ DE CASTILLO,1638
2010,PARTIDO FRENTE FARABUNDO MARTI PARA LA LIBERACION NACIONAL,PATRICIA INES CASTILLO ELIAS DE RIVAS,"1637,5"
2010,PARTIDO FRENTE FARABUNDO MARTI PARA LA LIBERACION NACIONAL,LUZ ESTRELLA RODRIGUEZ LOPEZ,1623
2010,PARTIDO FRENTE FARABUNDO MARTI PARA LA LIBERACION NACIONAL,JOSE ANTONIO HERNANDEZ RODRIGUEZ,"1578,12"
2010,PARTIDO FRENTE FARABUNDO MARTI PARA LA LIBERACION NACIONAL,JOSE TOMAS MINERO DOMINGUEZ,"1530,84"
2010,PARTIDO FRENTE FARABUNDO MARTI PARA LA LIBERACION NACIONAL,"1020 PERSONAS NATURALES CON DONACIONES DEBAJO DE $1,520.85 ","316793,44"
2010,PARTIDO FRENTE FARABUNDO MARTI PARA LA LIBERACION NACIONAL,"9 PERSONAS JURÍDICAS CON DONACIONES DEBAJO DE $5,170.89",5250
2010,PARTIDO DE CONCILIACION NACIONAL,"CRESE, S. A. DE C. V.",24000
2010,PARTIDO DE CONCILIACION NACIONAL,PATRICIA GUILLERMINA RIVAS DE SANCHEZ,20000
2010,PARTIDO DE CONCILIACION NACIONAL,"ELECTRONIC SYSTEMS, S. A. DE C. V.",20000
2010,PARTIDO DE CONCILIACION NACIONAL,JULIO EDUARDO MORENO NIÑOS,15000
2010,PARTIDO DE CONCILIACION NACIONAL,MARCO TULIO MAGAÑA ESCALANTE,10000
2010,PARTIDO DE CONCILIACION NACIONAL,EDUCACION  INTEGRAL S.A.  DE  C.V.,10000
2010,PARTIDO DE CONCILIACION NACIONAL,GUILLERMO ESCOBAR HERNANDEZ,10000
2010,PARTIDO DE CONCILIACION NACIONAL,"EL SALVADOR NETWORK, S. A.",9000
2010,PARTIDO DE CONCILIACION NACIONAL,CIRO ALEXIS ZEPEDA MENJIVAR,6300
2010,PARTIDO DE CONCILIACION NACIONAL,ALEXANDER HIGINIO MELCHOR LOPEZ,6000
2010,PARTIDO DE CONCILIACION NACIONAL,DONALD RICARDO CALDERON LAM,5000
2010,PARTIDO DE CONCILIACION NACIONAL,NELSON OMAR GUERRA TRINIDAD,5000
2010,PARTIDO DE CONCILIACION NACIONAL,ANA DOLORES PORTILLO DE ESCOBAR,5000
2010,PARTIDO DE CONCILIACION NACIONAL,ROMEO ALEXANDER AUERBACH FLORES,5000
2010,PARTIDO DE CONCILIACION NACIONAL,MILAGRO DE LA PAZ ELIAS,4000
2010,PARTIDO DE CONCILIACION NACIONAL,MANUEL ALFONSO RODRIGUEZ SALDAÑA,4000
2010,PARTIDO DE CONCILIACION NACIONAL,ISIDRO ANTONIO CABALLERO CABALLERO,3500
2010,PARTIDO DE CONCILIACION NACIONAL,FUNDACION LABORATORIOS LOPEZ,"3409,26"
2010,PARTIDO DE CONCILIACION NACIONAL,FABIO WILFRIDO ALFARO ALVARENGA,3300
2010,PARTIDO DE CONCILIACION NACIONAL,ANA PATRICIA RODRIGUEZ DE ALFARO,3300
2010,PARTIDO DE CONCILIACION NACIONAL,VILMA CAROLINA FLORES DE GARCIA,3000
2010,PARTIDO DE CONCILIACION NACIONAL,AUGUSTO ISMAEL ABDALA FERRUFINO,2000
2010,PARTIDO DE CONCILIACION NACIONAL,"1 PERSONAS NATURALES CON DONACIONES DEBAJO DE $1,520.85 ",700
2010,PARTIDO DE CONCILIACION NACIONAL,"6 PERSONAS JURÍDICAS CON DONACIONES DEBAJO DE $5,170.89","8028,87"
2010,PARTIDO DEMOCRATA CRISTIANO PDC,"FARMACIA SAN NICOLAS, S.A. DE C.V.",50000
2010,PARTIDO DEMOCRATA CRISTIANO PDC,"LABORATORIOS SUIZOS, S. A. DE C. V.",40000
2010,PARTIDO DEMOCRATA CRISTIANO PDC,"CENTRO DE ASESORIA LEGAL, S.A. DE C.V.",25000
2010,PARTIDO DEMOCRATA CRISTIANO PDC,"PARKER SOTO ABOGADOS, S. A. DE C. V.",25000
2010,PARTIDO DEMOCRATA CRISTIANO PDC,RODOLFO ANTONIO PARKER SOTO,10000
2010,PARTIDO DEMOCRATA CRISTIANO PDC,GUSTAVO ENRIQUE PARKER SOTO,10000
2010,PARTIDO DEMOCRATA CRISTIANO PDC,FELIPE GERARDO PARKER SOTO,10000
2010,PARTIDO DEMOCRATA CRISTIANO PDC,"LABORATORIOS VIJOSA, S.A. DE C.V.",10000
2010,PARTIDO DEMOCRATA CRISTIANO PDC,MAURICIO HERNANDEZ PEREZ,10000
2010,PARTIDO DEMOCRATA CRISTIANO PDC,JOSE NAPOLEON DOMINGUEZ ESCOBAR,6500
2010,PARTIDO DEMOCRATA CRISTIANO PDC,MARTIR ARNOLDO MARIN VILLANUEVA,6000
2010,PARTIDO DEMOCRATA CRISTIANO PDC,EDWIN PATRICIO NUÑEZ ALGUERA,6000
2010,PARTIDO DEMOCRATA CRISTIANO PDC,JOSE ANTONIO HERRERA MARTINEZ,5911
2010,PARTIDO DEMOCRATA CRISTIANO PDC,RONALD EDUARDO TOLEDO CHAVEZ,5000
2010,PARTIDO DEMOCRATA CRISTIANO PDC,CARLOS ROLANDO HERRARTE RIVAS,4000
2010,PARTIDO DEMOCRATA CRISTIANO PDC,MANUEL SALVADOR MORALES ROSALES,4000
2010,PARTIDO DEMOCRATA CRISTIANO PDC,DOUGLAS EVIL LOPEZ,3600
2010,PARTIDO DEMOCRATA CRISTIANO PDC,SANTOS GUEVARA,3020
2010,PARTIDO DEMOCRATA CRISTIANO PDC,LUISA CAROLINA CORPEÑO CASTILLO,3000
2010,PARTIDO DEMOCRATA CRISTIANO PDC,JUANA ISOLINA ALAS DE MARIN,3000
2010,PARTIDO DEMOCRATA CRISTIANO PDC,FUNDACION LABORATORIOS LOPEZ,"2736,48"
2010,PARTIDO DEMOCRATA CRISTIANO PDC,SILVIA ESTELA FLORES RIVAS,2500
2010,PARTIDO DEMOCRATA CRISTIANO PDC,BLANCA MARIBEL OLIVA DE NUÑEZ,2400
2010,PARTIDO DEMOCRATA CRISTIANO PDC,MARIA LILLIAM NAVARRETE DE PERAZA,2160
2010,PARTIDO DEMOCRATA CRISTIANO PDC,ANA GUADALUPE MARTINEZ MENENDEZ,2016
2010,PARTIDO DEMOCRATA CRISTIANO PDC,"93 PERSONAS NATURALES CON DONACIONES DEBAJO DE $1,520.85 ","21497,09"
2010,PARTIDO DEMOCRATA CRISTIANO PDC,"3 PERSONAS JURÍDICAS CON DONACIONES DEBAJO DE $5,170.89","8736,48"
2010,PARTIDO ALIANZA REPUBLICANA NACIONALISTA,"COMPAÑIA AZUCARERA SALVADOREÑA, S. A. DE C. V.",257000
2010,PARTIDO ALIANZA REPUBLICANA NACIONALISTA,"HENRIQUEZ,S.A. DE C.V.",36000
2010,PARTIDO ALIANZA REPUBLICANA NACIONALISTA,"STEINER,S.A. DE C.V.","28427,75"
2010,PARTIDO ALIANZA REPUBLICANA NACIONALISTA,"FREUND DE EL SALVADOR, S.A. DE C.V.",25000
2010,PARTIDO ALIANZA REPUBLICANA NACIONALISTA,ILDIKO MARIA JUHASZ VDA. DE TESAK,25000
2010,PARTIDO ALIANZA REPUBLICANA NACIONALISTA,"AGROPECUARIA MONTE GRANDE, S. A. DE C. V.",20832
2010,PARTIDO ALIANZA REPUBLICANA NACIONALISTA,"PRODUCTOS ALIMENTICIOS SELLO DE ORO, S.A. DE C.V.","19892,8"
2010,PARTIDO ALIANZA REPUBLICANA NACIONALISTA,"DISTRIBUIDORA PRIETO, S.A. DE C.V.","15277,51"
2010,PARTIDO ALIANZA REPUBLICANA NACIONALISTA,JOSE MIGUEL ESCOBAR MUÑOZ,15000
2010,PARTIDO ALIANZA REPUBLICANA NACIONALISTA,MARIO MARROQUIN MEJIA,15000
2010,PARTIDO ALIANZA REPUBLICANA NACIONALISTA,"PRODUCTOS ALIMENTICIOS DIANA, S.A. DE C.V.",15000
2010,PARTIDO ALIANZA REPUBLICANA NACIONALISTA,"RECEPTOR COMUNICACION INTEGRADA, S. A. DE C. V.","14009,13"
2010,PARTIDO ALIANZA REPUBLICANA NACIONALISTA,"DATUM, S.A. DE C.V.",11600
2010,PARTIDO ALIANZA REPUBLICANA NACIONALISTA,JOSE LUIS SACA MELENDEZ,9000
2010,PARTIDO ALIANZA REPUBLICANA NACIONALISTA,"FERSON, S.A. DE C.V.","7821,73"
2010,PARTIDO ALIANZA REPUBLICANA NACIONALISTA,"DROGUERIA AMERICANA, S.A. DE C.V.",6500
2010,PARTIDO ALIANZA REPUBLICANA NACIONALISTA,"CENTURION INVERSIONES, S.A. DE C.V.",6500
2010,PARTIDO ALIANZA REPUBLICANA NACIONALISTA,"CAJAS Y BOLSAS, S.A.",6000
2010,PARTIDO ALIANZA REPUBLICANA NACIONALISTA,"CAJAS PLEGADIZAS, S. A. DE C. V.",6000
2010,PARTIDO ALIANZA REPUBLICANA NACIONALISTA,"CELPAC, S.A. DE C.V.",6000
2010,PARTIDO ALIANZA REPUBLICANA NACIONALISTA,FREDDIE MOISES FRECH HASBUN,6000
2010,PARTIDO ALIANZA REPUBLICANA NACIONALISTA,EDUARDO ERNESTO BERDUGO MUÑOZ,5600
2010,PARTIDO ALIANZA REPUBLICANA NACIONALISTA,RAFAEL FEDERICO CASTELLANOS CALDERON,3250
2010,PARTIDO ALIANZA REPUBLICANA NACIONALISTA,MARVIN  EDGARDO PADILLA MELGAR,2500
2010,PARTIDO ALIANZA REPUBLICANA NACIONALISTA,CARLOS JOSE GUERRERO ZELAYA,2300
2010,PARTIDO ALIANZA REPUBLICANA NACIONALISTA,MARIA FLORENCE GLADYS HILL DE MATHIES,2000
2010,PARTIDO ALIANZA REPUBLICANA NACIONALISTA,EDGAR EDMUNDO ORTIZ,2000
2010,PARTIDO ALIANZA REPUBLICANA NACIONALISTA,MAURICIO JOSE PRADO RIVAS,2000
2010,PARTIDO ALIANZA REPUBLICANA NACIONALISTA,"99 PERSONAS NATURALES CON DONACIONES DEBAJO DE $1,520.85 ","46016,99"
2010,PARTIDO ALIANZA REPUBLICANA NACIONALISTA,"76 PERSONAS JURÍDICAS CON DONACIONES DEBAJO DE $5,170.89","107808,77"
