Año,Partido,NOMBRE DONANTE,AÑO
2014,CONCERTACION NACIONAL,"COMPAÑIA AZUCARERA SALVADOREÑA, S. A. DE C. V.",450000
2014,CONCERTACION NACIONAL,"MOLINOS DE EL SALVADOR, S.A. DE C.V.",190000
2014,CONCERTACION NACIONAL,"AGROINDUSTRIAS GUMARSAL,S.A.DE C.V.",52088
2014,CONCERTACION NACIONAL,"P.P.J.L. DE EL SALVADOR, S.A. DE C.V.",30000
2014,CONCERTACION NACIONAL,"URIMAR, S. A. DE C. V.",30000
2014,CONCERTACION NACIONAL,"INDUSTRIAS LA CONSTANCIA, S.A. DE C.V.",21860
2014,CONCERTACION NACIONAL,MANEJO INTEGRAL DE DESECHOS SOLIDOS S.E.M. DE C.V.,20675
2014,CONCERTACION NACIONAL,"METROCENTRO, S.A. DE C.V.",15000
2014,CONCERTACION NACIONAL,MIGUEL ANGEL RUBIO ECHEGOYEN,11300
2014,CONCERTACION NACIONAL,"JOR, S. A. DE C. V.",10000
2014,CONCERTACION NACIONAL,"7 PERSONAS JURÍDICAS CON DONACIONES DEBAJO DE $5,170.89","11490,05"
2014,GRAN ALIANZA POR LA UNIDAD NACIONAL GANA,"ALUMINIOS INTERNACIONALES, S.A. DE C.V.",150000
2014,GRAN ALIANZA POR LA UNIDAD NACIONAL GANA,YONY ROGER CISNEROS MEZA,35000
2014,GRAN ALIANZA POR LA UNIDAD NACIONAL GANA,"INDUSTRIAS LA CONSTANCIA, S.A. DE C.V.",26500
2014,GRAN ALIANZA POR LA UNIDAD NACIONAL GANA,"FUNES Y ASOCIADOS PUBLICIDAD, S. A. DE C. V.",25000
2014,GRAN ALIANZA POR LA UNIDAD NACIONAL GANA,PASTELES DE EL SALVADOR S. A. DE C. V.,25000
2014,GRAN ALIANZA POR LA UNIDAD NACIONAL GANA,HERBERT ERNESTO SACA VIDES,20000
2014,GRAN ALIANZA POR LA UNIDAD NACIONAL GANA,JOSE ANDRES ROVIRA CANALES,16000
2014,GRAN ALIANZA POR LA UNIDAD NACIONAL GANA,PEDRO CISNEROS CARDOZA,15000
2014,GRAN ALIANZA POR LA UNIDAD NACIONAL GANA,"CONSTRUYON, S. A.  DE  C.V.",14000
2014,GRAN ALIANZA POR LA UNIDAD NACIONAL GANA,"DROGUERIA FARMAVIDA, S. A. DE C. V.","5785,08"
2014,GRAN ALIANZA POR LA UNIDAD NACIONAL GANA,ABILIO ORESTES RODRIGUEZ MENJIVAR,4800
2014,GRAN ALIANZA POR LA UNIDAD NACIONAL GANA,CARLOS WALTER GUZMAN COTO,4800
2014,GRAN ALIANZA POR LA UNIDAD NACIONAL GANA,CESAR HUMBERTO GARCIA AGUILERA,4800
2014,GRAN ALIANZA POR LA UNIDAD NACIONAL GANA,FRANCISCO JOSE ZABLAH SAFIE,4800
2014,GRAN ALIANZA POR LA UNIDAD NACIONAL GANA,GUADALUPE ANTONIO VASQUEZ MARTINEZ,4800
2014,GRAN ALIANZA POR LA UNIDAD NACIONAL GANA,GUILLERMO ANTONIO GALLEGOS NAVARRETE,4800
2014,GRAN ALIANZA POR LA UNIDAD NACIONAL GANA,JOSE NELSON GUARDADO MENJIVAR,4800
2014,GRAN ALIANZA POR LA UNIDAD NACIONAL GANA,JUAN CARLOS MENDOZA PORTILLO,4800
2014,GRAN ALIANZA POR LA UNIDAD NACIONAL GANA,LORENZO RIVAS ECHEVERRIA,4800
2014,GRAN ALIANZA POR LA UNIDAD NACIONAL GANA,SANDRA MARLENE SALGADO GARCIA,4800
2014,GRAN ALIANZA POR LA UNIDAD NACIONAL GANA,SANDRA PATRICIA FLORES HIDALGO,4500
2014,GRAN ALIANZA POR LA UNIDAD NACIONAL GANA,ROBERTO ENRIQUE SALINAS GUERRA,4260
2014,GRAN ALIANZA POR LA UNIDAD NACIONAL GANA,JOSE RINALDO GARZONA VILLEDA,4000
2014,GRAN ALIANZA POR LA UNIDAD NACIONAL GANA,INGRID YESENIA CALDERON PEÑATE,3900
2014,GRAN ALIANZA POR LA UNIDAD NACIONAL GANA,LORENA DEL CARMEN UMANZOR,3720
2014,GRAN ALIANZA POR LA UNIDAD NACIONAL GANA,HECTOR ARMANDO GUZMAN OLLA,3600
2014,GRAN ALIANZA POR LA UNIDAD NACIONAL GANA,JUAN ESTEBAN SALINAS GUERRA,3600
2014,GRAN ALIANZA POR LA UNIDAD NACIONAL GANA,WILFREDO OMAR SANCHEZ GONZALEZ,3600
2014,GRAN ALIANZA POR LA UNIDAD NACIONAL GANA,BEATRIZ DEL CARMEN TURCIOS DE GUERRA,3240
2014,GRAN ALIANZA POR LA UNIDAD NACIONAL GANA,ANA DEL ROCIO LARA DE PINEDA,3000
2014,GRAN ALIANZA POR LA UNIDAD NACIONAL GANA,FLOR ISABEL MENDOZA OLIVA,3000
2014,GRAN ALIANZA POR LA UNIDAD NACIONAL GANA,MARIA SANDRA ARACELY RUIZ,3000
2014,GRAN ALIANZA POR LA UNIDAD NACIONAL GANA,NESTOR ARTURO RAMIREZ AVENDAÑO,3000
2014,GRAN ALIANZA POR LA UNIDAD NACIONAL GANA,RAFAEL RICARDO MORAN TOBAR,3000
2014,GRAN ALIANZA POR LA UNIDAD NACIONAL GANA,REINA ISABEL MARTINEZ ROMERO,3000
2014,GRAN ALIANZA POR LA UNIDAD NACIONAL GANA,RICARDO DE JESUS MENJIVAR ALVARENGA,3000
2014,GRAN ALIANZA POR LA UNIDAD NACIONAL GANA,WENDY YAMILETH CASTRO CORONADO,2760
2014,GRAN ALIANZA POR LA UNIDAD NACIONAL GANA,CLAUDIA IVETTE MOLINA GALAN,2700
2014,GRAN ALIANZA POR LA UNIDAD NACIONAL GANA,JACQUELINE ELIZABETH VARGAS SARCO,2700
2014,GRAN ALIANZA POR LA UNIDAD NACIONAL GANA,MAURICIO ERNESTO CAMPOS MARTINEZ,2700
2014,GRAN ALIANZA POR LA UNIDAD NACIONAL GANA,OSCAR EDGARDO MIXCO SOL,2700
2014,GRAN ALIANZA POR LA UNIDAD NACIONAL GANA,JULIO ALEJANDRO OVIEDO,2640
2014,GRAN ALIANZA POR LA UNIDAD NACIONAL GANA,PABLO MARDOMEO VALLE FLORES,2500
2014,GRAN ALIANZA POR LA UNIDAD NACIONAL GANA,DAVID ALBERTO TORRES MONGE,"2435,04"
2014,GRAN ALIANZA POR LA UNIDAD NACIONAL GANA,ANA VILMA CASTRO DE CABRERA,2400
2014,GRAN ALIANZA POR LA UNIDAD NACIONAL GANA,BLANCA ROSA VIDES,2400
2014,GRAN ALIANZA POR LA UNIDAD NACIONAL GANA,CARLOS BLADIMIR SEIN LIZAMA NUÑEZ,2400
2014,GRAN ALIANZA POR LA UNIDAD NACIONAL GANA,DOLORES ALBERTO RIVAS ECHEVERRIA,2400
2014,GRAN ALIANZA POR LA UNIDAD NACIONAL GANA,EDUARDO ANTONIO GOMAR MORAN,2400
2014,GRAN ALIANZA POR LA UNIDAD NACIONAL GANA,FRANCISCO RODIL GOMEZ ALFARO,2400
2014,GRAN ALIANZA POR LA UNIDAD NACIONAL GANA,GLORIA ELIZABETH GOMEZ DE SALGADO,2400
2014,GRAN ALIANZA POR LA UNIDAD NACIONAL GANA,MARIO ALBERTO TENORIO GUERRERO,2400
2014,GRAN ALIANZA POR LA UNIDAD NACIONAL GANA,RAFAEL ANTONIO MOLINA ALVAREZ,2400
2014,GRAN ALIANZA POR LA UNIDAD NACIONAL GANA,VILMA MONGE ORTEGA,2400
2014,GRAN ALIANZA POR LA UNIDAD NACIONAL GANA,MAYRA MARLENI HERNANDEZ MENJIVAR,2334
2014,GRAN ALIANZA POR LA UNIDAD NACIONAL GANA,CARLOS ORLANDO MENJIVAR,2322
2014,GRAN ALIANZA POR LA UNIDAD NACIONAL GANA,ALFONSO GONZALEZ VASQUEZ,2280
2014,GRAN ALIANZA POR LA UNIDAD NACIONAL GANA,LETICIA DEL CARMEN GODOY DE MOLINA,2280
2014,GRAN ALIANZA POR LA UNIDAD NACIONAL GANA,SANTANA OSMIN RIVAS ECHEVERRIA,2280
2014,GRAN ALIANZA POR LA UNIDAD NACIONAL GANA,IVETTE ELIZABETH LOPEZ DE GRANDE,2160
2014,GRAN ALIANZA POR LA UNIDAD NACIONAL GANA,NAHIN ARNELGE FERRUFINO BENITEZ,2160
2014,GRAN ALIANZA POR LA UNIDAD NACIONAL GANA,JOSE GILBERTO VELA RODRIGUEZ,2100
2014,GRAN ALIANZA POR LA UNIDAD NACIONAL GANA,KARLA LILIANA MARQUEZ FUENTES,2100
2014,GRAN ALIANZA POR LA UNIDAD NACIONAL GANA,YURY ERNESTO LIZAMA NUÑEZ,2100
2014,GRAN ALIANZA POR LA UNIDAD NACIONAL GANA,FERNANDO ALBERTO JOSE AVILA QUETGLAS,2040
2014,GRAN ALIANZA POR LA UNIDAD NACIONAL GANA,FRANCISCO JAVIER ORTIZ LOPEZ,2040
2014,GRAN ALIANZA POR LA UNIDAD NACIONAL GANA,RENE ARTURO BERCIAN PEREZ,2040
2014,GRAN ALIANZA POR LA UNIDAD NACIONAL GANA,JOSE MAURICIO GUTIERREZ ALVARENGA,2000
2014,GRAN ALIANZA POR LA UNIDAD NACIONAL GANA,MIRELLA BERENICE AVALOS DE TREJO,2000
2014,GRAN ALIANZA POR LA UNIDAD NACIONAL GANA,XIOMARA PATRICIA CALLEJAS DE CLIMACO,"1942,5"
2014,GRAN ALIANZA POR LA UNIDAD NACIONAL GANA,SANTOS EMILIO ALVAREZ,1890
2014,GRAN ALIANZA POR LA UNIDAD NACIONAL GANA,ANA LORENA GUZMAN SAMAYOA,1860
2014,GRAN ALIANZA POR LA UNIDAD NACIONAL GANA,ADAN CORTEZ,1800
2014,GRAN ALIANZA POR LA UNIDAD NACIONAL GANA,ANA VERONICA ALEJANDRA CASTRO DE HERNANDEZ,1800
2014,GRAN ALIANZA POR LA UNIDAD NACIONAL GANA,HADA ESMERALDA GARCIA AGUILERA,1800
2014,GRAN ALIANZA POR LA UNIDAD NACIONAL GANA,JOSE ERNESTO LANDOS REVELO,1800
2014,GRAN ALIANZA POR LA UNIDAD NACIONAL GANA,JOSE GABRIEL MURILLO DUARTE,1800
2014,GRAN ALIANZA POR LA UNIDAD NACIONAL GANA,MIGUEL ELIAS AHUES KARRA,1800
2014,GRAN ALIANZA POR LA UNIDAD NACIONAL GANA,OSCAR ANTONIO NAVAS IRAHETA,1800
2014,GRAN ALIANZA POR LA UNIDAD NACIONAL GANA,RAFAEL EDUARDO PAZ VELIS,1800
2014,GRAN ALIANZA POR LA UNIDAD NACIONAL GANA,SILVIA INMACULADA AGUILAR ZEPEDA,1800
2014,GRAN ALIANZA POR LA UNIDAD NACIONAL GANA,ZOILA ESPERANZA JACO DE PINEDA,1800
2014,GRAN ALIANZA POR LA UNIDAD NACIONAL GANA,MANUEL CASTRO CORONADO,1776
2014,GRAN ALIANZA POR LA UNIDAD NACIONAL GANA,CRUZ ANTONIO RIVAS SALINAS,"1772,25"
2014,GRAN ALIANZA POR LA UNIDAD NACIONAL GANA,MIGUEL ANGEL PERDOMO DURAN,1725
2014,GRAN ALIANZA POR LA UNIDAD NACIONAL GANA,OSCAR ARMANDO CERON,1680
2014,GRAN ALIANZA POR LA UNIDAD NACIONAL GANA,JOSE ANTONIO RAMOS ORELLANA,"1674,5"
2014,GRAN ALIANZA POR LA UNIDAD NACIONAL GANA,JOSE MAURICIO CANALES TURCIOS,1560
2014,GRAN ALIANZA POR LA UNIDAD NACIONAL GANA,JOSE WILFREDO GUEVARA DIAZ,1560
2014,GRAN ALIANZA POR LA UNIDAD NACIONAL GANA,RUBIO RONAL RIVAS RECINOS,1560
2014,GRAN ALIANZA POR LA UNIDAD NACIONAL GANA,SEBASTIAN ALEXANDER RIVERA SERPAS,1560
2014,GRAN ALIANZA POR LA UNIDAD NACIONAL GANA,"159 PERSONAS NATURALES CON DONACIONES DEBAJO DE $1,520.85 ","109991,54"
2014,GRAN ALIANZA POR LA UNIDAD NACIONAL GANA,"3 PERSONAS JURÍDICAS CON DONACIONES DEBAJO DE $5,170.89","10576,25"
2014,PARTIDO ALIANZA REPUBLICANA NACIONALISTA,"CENTRO DE ESTUDIOS POLITICOS ""DR. JOSE ANTONIO RODRIGUEZ PORTH""",2672350
2014,PARTIDO ALIANZA REPUBLICANA NACIONALISTA,"DESARROLLOS VERANDA, S. A DE C.V.",350000
2014,PARTIDO ALIANZA REPUBLICANA NACIONALISTA,"DISTRIBUIDORA DE AUTOMOVILES, S.A. DE C.V.",300000
2014,PARTIDO ALIANZA REPUBLICANA NACIONALISTA,"INGENIO EL ANGEL,S.A. DE C.V.",239000
2014,PARTIDO ALIANZA REPUBLICANA NACIONALISTA,DUEÑAS HERMANOS LTDA,220000
2014,PARTIDO ALIANZA REPUBLICANA NACIONALISTA,"DROGUERIA SANTA LUCIA, S.A. DE C.V.","204494,48"
2014,PARTIDO ALIANZA REPUBLICANA NACIONALISTA,"INDUSTRIAS LA CONSTANCIA, S.A. DE C.V.",189000
2014,PARTIDO ALIANZA REPUBLICANA NACIONALISTA,ROBERTO DUEÑAS LIMITADA,175000
2014,PARTIDO ALIANZA REPUBLICANA NACIONALISTA,"COMPAÑIA AZUCARERA SALVADOREÑA, S. A. DE C. V.","151443,34"
2014,PARTIDO ALIANZA REPUBLICANA NACIONALISTA,"HENRIQUEZ,S.A. DE C.V.","145392,48"
2014,PARTIDO ALIANZA REPUBLICANA NACIONALISTA,GUILLERMO ENRIQUE BORJA NATHAN,140000
2014,PARTIDO ALIANZA REPUBLICANA NACIONALISTA,"CREDISIMAN, S.A. DE C.V.",136500
2014,PARTIDO ALIANZA REPUBLICANA NACIONALISTA,"NEMTEX, S.A. DE C.V.","112885,84"
2014,PARTIDO ALIANZA REPUBLICANA NACIONALISTA,"OMNISPORT, S.A. DE C.V.",107500
2014,PARTIDO ALIANZA REPUBLICANA NACIONALISTA,"CALLEJA, S.A. DE C.V.",101100
2014,PARTIDO ALIANZA REPUBLICANA NACIONALISTA,"PUBLICIDAD COMERCIAL, S.A. DE C.V.",100500
2014,PARTIDO ALIANZA REPUBLICANA NACIONALISTA,"ALIMENTOS PRACTICOS, S.A. DE C.V.",100000
2014,PARTIDO ALIANZA REPUBLICANA NACIONALISTA,OSCAR HENRIQUEZ PORTILLO,100000
2014,PARTIDO ALIANZA REPUBLICANA NACIONALISTA,"PRODUCTOS ALIMENTICIOS DIANA, S.A. DE C.V.",100000
2014,PARTIDO ALIANZA REPUBLICANA NACIONALISTA,ERNESTO JOSE DENIS REGALADO O'SULLIVAN,86000
2014,PARTIDO ALIANZA REPUBLICANA NACIONALISTA,"FARMACEUTICOS EQUIVALENTES, S.A. DE C.V.",83500
2014,PARTIDO ALIANZA REPUBLICANA NACIONALISTA,"FREUND DE EL SALVADOR, S.A. DE C.V.",70500
2014,PARTIDO ALIANZA REPUBLICANA NACIONALISTA,"DESARROLLOS INMOBILIARIOS COMERCIALES, S. A.  DE  C.V. ",70000
2014,PARTIDO ALIANZA REPUBLICANA NACIONALISTA,"GRUPO Q CORPORATIVO, S.A. DE C.V.","60993,18"
2014,PARTIDO ALIANZA REPUBLICANA NACIONALISTA,"DISTRIBUIDORA ZABLAH,S.A. DE C.V.","60134,84"
2014,PARTIDO ALIANZA REPUBLICANA NACIONALISTA,"UNIFERSA-DISAGRO, S.A. DE C.V.",57000
2014,PARTIDO ALIANZA REPUBLICANA NACIONALISTA,"C. IMBERTON, S.A. DE C.V.","56581,25"
2014,PARTIDO ALIANZA REPUBLICANA NACIONALISTA,"PRODUCTOS ALIMENTICIOS SELLO DE ORO, S.A. DE C.V.","56133,3"
2014,PARTIDO ALIANZA REPUBLICANA NACIONALISTA,"INMOBILIARIA APOPA, S. A. DE C. V.",53000
2014,PARTIDO ALIANZA REPUBLICANA NACIONALISTA,"INVERSIONES SAN LUIS, LIMITADA DE CAPITAL VARIABLE",51000
2014,PARTIDO ALIANZA REPUBLICANA NACIONALISTA,"GALVANIZADORA INDUSTRIAL SALVADOREÑA,SA DE CV ",50500
2014,PARTIDO ALIANZA REPUBLICANA NACIONALISTA,"GRUPO Q EL SALVADOR, S.A. DE C.V.",50500
2014,PARTIDO ALIANZA REPUBLICANA NACIONALISTA,"CAPITALES Y SERVICIOS, S.A. DE C.V.",50000
2014,PARTIDO ALIANZA REPUBLICANA NACIONALISTA,"DROGUERIA NUEVA SAN CARLOS, S.A. DE C.V.",50000
2014,PARTIDO ALIANZA REPUBLICANA NACIONALISTA,"F. V. CONSTRUCTORES, S. A. DE C. V.",50000
2014,PARTIDO ALIANZA REPUBLICANA NACIONALISTA,"INDUSTRIAS DE FOAM, S.A. DE C.V.",48249
2014,PARTIDO ALIANZA REPUBLICANA NACIONALISTA,"AVICOLA SALVADOREÑA, S.A. DE C.V.",48000
2014,PARTIDO ALIANZA REPUBLICANA NACIONALISTA,"SUMINISTROS DE RESTAURANTES, S.A. DE C.V. SURESA, S.A. DE C.V.",48000
2014,PARTIDO ALIANZA REPUBLICANA NACIONALISTA,"DISTRIBUIDORA SALVADOREÑA, S.A. DE C.V.",41500
2014,PARTIDO ALIANZA REPUBLICANA NACIONALISTA,"EL GRANJERO, S.A. DE C.V. EG, S.A DE C.V.",41000
2014,PARTIDO ALIANZA REPUBLICANA NACIONALISTA,"ASEGURADORA AGRICOLA COMERCIAL, S.A.",40000
2014,PARTIDO ALIANZA REPUBLICANA NACIONALISTA,"INDUSTRIAS TOPAZ, S.A.",37500
2014,PARTIDO ALIANZA REPUBLICANA NACIONALISTA,MONTE RICO. S. A. DE C. V.,36000
2014,PARTIDO ALIANZA REPUBLICANA NACIONALISTA,MARIA FLORENCE GLADYS HILL DE MATHIES,33900
2014,PARTIDO ALIANZA REPUBLICANA NACIONALISTA,"EL COPO, SOCIEDAD ANONIMA DE CAPITAL VARIABLE",33000
2014,PARTIDO ALIANZA REPUBLICANA NACIONALISTA,"AGROQUIMICA INTERNACIONAL, S.A. DE C.V. ",25000
2014,PARTIDO ALIANZA REPUBLICANA NACIONALISTA,"DISTRIBUIDORA NACIONAL,S.A. DE C.V. DISNA, S. A. DE C.V.",25000
2014,PARTIDO ALIANZA REPUBLICANA NACIONALISTA,INVERSE S.A. DE C.V.,25000
2014,PARTIDO ALIANZA REPUBLICANA NACIONALISTA,"LA CANTERA, S.A DE C.V.",25000
2014,PARTIDO ALIANZA REPUBLICANA NACIONALISTA,"PASCUAL MERLOS, S.A. DE C.V.",25000
2014,PARTIDO ALIANZA REPUBLICANA NACIONALISTA,"SUPER REPUESTOS EL SALVADOR, SOCIEDAD ANONIMA  DE CAPITAL VARIABLE ",25000
2014,PARTIDO ALIANZA REPUBLICANA NACIONALISTA,"COMPAÑIA TIMANFAYA, S. A. DE C. V.",24000
2014,PARTIDO ALIANZA REPUBLICANA NACIONALISTA,"DROGUERIA AMERICANA, S.A. DE C.V.",22000
2014,PARTIDO ALIANZA REPUBLICANA NACIONALISTA,"INDUSTRIAS MIKE MIKE, S.A. DE C.V.",22000
2014,PARTIDO ALIANZA REPUBLICANA NACIONALISTA,"DISTRIBUCIONES DIVERSAS, S.A. DE C.V.",21000
2014,PARTIDO ALIANZA REPUBLICANA NACIONALISTA,VENTURA HUGO GUILLERMO DADA RINKER,20000
2014,PARTIDO ALIANZA REPUBLICANA NACIONALISTA,"ZONA FRANCA DE EXPORTACION EL PEDREGAL, S. A.",20000
2014,PARTIDO ALIANZA REPUBLICANA NACIONALISTA,GRUPO PAILL  S. A.  DE  C. V.,"19651,62"
2014,PARTIDO ALIANZA REPUBLICANA NACIONALISTA,"QUALITY GRAINS, S. A. DE C. V.","18966,84"
2014,PARTIDO ALIANZA REPUBLICANA NACIONALISTA,TOMAS REGALADO DUEÑAS,17660
2014,PARTIDO ALIANZA REPUBLICANA NACIONALISTA,"JARDINES, INMUEBLES, S. A. DE C. V.",17500
2014,PARTIDO ALIANZA REPUBLICANA NACIONALISTA,"ESTABLECIMIENTOS ANCALMO, S.A DE C.V.","17308,03"
2014,PARTIDO ALIANZA REPUBLICANA NACIONALISTA,"AGROPECUARIA MONTE GRANDE, S. A. DE C. V.",16500
2014,PARTIDO ALIANZA REPUBLICANA NACIONALISTA,"DATUM, S.A. DE C.V.",15500
2014,PARTIDO ALIANZA REPUBLICANA NACIONALISTA,"EMASAL, S.A. DE C.V.",15000
2014,PARTIDO ALIANZA REPUBLICANA NACIONALISTA,"INVERSIONES MAXIMA, S.A. DE C.V.",15000
2014,PARTIDO ALIANZA REPUBLICANA NACIONALISTA,"D'CASA,S.A. DE C.V.",13000
2014,PARTIDO ALIANZA REPUBLICANA NACIONALISTA,"CAJAS Y BOLSAS, S.A.",12000
2014,PARTIDO ALIANZA REPUBLICANA NACIONALISTA,"CORPORACION MERCANTIL SALVADOREÑA,S.A. DE C.V.","10835,68"
2014,PARTIDO ALIANZA REPUBLICANA NACIONALISTA,CORPORACION MONTELENA S.A. DE C.V.,10500
2014,PARTIDO ALIANZA REPUBLICANA NACIONALISTA,"ALMACENADORA DEL PACIFICO, S.A. DE C.V.",10000
2014,PARTIDO ALIANZA REPUBLICANA NACIONALISTA,"CORPORACION APOLO, S.A. DE C.V.",10000
2014,PARTIDO ALIANZA REPUBLICANA NACIONALISTA,"DIZAC,S.A. DE C.V.",10000
2014,PARTIDO ALIANZA REPUBLICANA NACIONALISTA,"ICAT, S. A. DE C. V.",10000
2014,PARTIDO ALIANZA REPUBLICANA NACIONALISTA,"TERRAC, PAVIM, VIVIENDA E INVERS, S.A. DE C.V.",9500
2014,PARTIDO ALIANZA REPUBLICANA NACIONALISTA,FUNDACION LABORATORIOS LOPEZ,"9280,12"
2014,PARTIDO ALIANZA REPUBLICANA NACIONALISTA,"TERMOENCOGIBLES, S.A. DE C.V.","8861,14"
2014,PARTIDO ALIANZA REPUBLICANA NACIONALISTA,"BIANCHI Y ASOCIADOS,S.A. DE C.V. OGILVY EL SALVADOR",8400
2014,PARTIDO ALIANZA REPUBLICANA NACIONALISTA,"INTRADESA, S. A. DE C. V.",8400
2014,PARTIDO ALIANZA REPUBLICANA NACIONALISTA,"ALPINA, S.A. DE C.V.",8000
2014,PARTIDO ALIANZA REPUBLICANA NACIONALISTA,"SACOS SINTETICOS CENTROAMERICANOS, S.A. DE C.V.",8000
2014,PARTIDO ALIANZA REPUBLICANA NACIONALISTA,"MEYER BAN, S.A. DE C.V.",7500
2014,PARTIDO ALIANZA REPUBLICANA NACIONALISTA,"STEINER,S.A. DE C.V.",7200
2014,PARTIDO ALIANZA REPUBLICANA NACIONALISTA,JUAN ANTONIO MIRO LLORT,7000
2014,PARTIDO ALIANZA REPUBLICANA NACIONALISTA,"ALBACROME, SOCIEDAD ANONIMA DE CAPITAL VARIABLE ","6576,57"
2014,PARTIDO ALIANZA REPUBLICANA NACIONALISTA,"SALVAPLASTIC, S.A. DE C.V.","6433,27"
2014,PARTIDO ALIANZA REPUBLICANA NACIONALISTA,CARLOS LEON IMBERTON DENEKE,6250
2014,PARTIDO ALIANZA REPUBLICANA NACIONALISTA,SUCESORES LUIS TORRES Y COMPAÑIA DE C. V. SUC. LUIS TORRES Y CIA DE C. V.,6050
2014,PARTIDO ALIANZA REPUBLICANA NACIONALISTA,CARLOS JOSE GUERRERO ZELAYA,6000
2014,PARTIDO ALIANZA REPUBLICANA NACIONALISTA,"DISPROBE,S.A. DE C.V.",6000
2014,PARTIDO ALIANZA REPUBLICANA NACIONALISTA,"EL CENTRO TEXTIL, S.A. DE C.V.",6000
2014,PARTIDO ALIANZA REPUBLICANA NACIONALISTA,JULIO ANTONIO GAMERO QUINTANILLA,6000
2014,PARTIDO ALIANZA REPUBLICANA NACIONALISTA,"LA CASA DEL REPUESTO, S.A. DE C.V.",6000
2014,PARTIDO ALIANZA REPUBLICANA NACIONALISTA,"LABORATORIOS VIJOSA, S.A. DE C.V.",6000
2014,PARTIDO ALIANZA REPUBLICANA NACIONALISTA,MARIO MARROQUIN MEJIA,6000
2014,PARTIDO ALIANZA REPUBLICANA NACIONALISTA,MAURICIO JOSE PRADO RIVAS,6000
2014,PARTIDO ALIANZA REPUBLICANA NACIONALISTA,BONER FRANCISCO JIMENEZ ZEPEDA,5600
2014,PARTIDO ALIANZA REPUBLICANA NACIONALISTA,"ASEGURADORA POPULAR,S.A.",5500
2014,PARTIDO ALIANZA REPUBLICANA NACIONALISTA,EDGAR VICTOR ZAMORA DAVID,5400
2014,PARTIDO ALIANZA REPUBLICANA NACIONALISTA,"ETI, S. A. DE C. V.",5250
2014,PARTIDO ALIANZA REPUBLICANA NACIONALISTA,JOSE EDGAR ESCOLAN BATARSE,"5057,59"
2014,PARTIDO ALIANZA REPUBLICANA NACIONALISTA,RAFAEL ARTURO MEZA HILL,5000
2014,PARTIDO ALIANZA REPUBLICANA NACIONALISTA,ROBERTO HENDERSON MURRAY MEZA,5000
2014,PARTIDO ALIANZA REPUBLICANA NACIONALISTA,ROBERTO ORTIZ AVALOS,5000
2014,PARTIDO ALIANZA REPUBLICANA NACIONALISTA,GUILLERMO ERNESTO MIGUEL BAHAIA,3500
2014,PARTIDO ALIANZA REPUBLICANA NACIONALISTA,MARIA MARTA PAPINI DE REGALADO,3332
2014,PARTIDO ALIANZA REPUBLICANA NACIONALISTA,CARLOS ANTONIO CALDERON GUTIERREZ,3250
2014,PARTIDO ALIANZA REPUBLICANA NACIONALISTA,CARLOS ALBERTO PEREZ,3000
2014,PARTIDO ALIANZA REPUBLICANA NACIONALISTA,EDGAR EDMUNDO ORTIZ,3000
2014,PARTIDO ALIANZA REPUBLICANA NACIONALISTA,MARIA VICTORIA AMADA ABELINA SOL ALEGRIA,3000
2014,PARTIDO ALIANZA REPUBLICANA NACIONALISTA,RODRIGO SAMAYOA LLORT,2600
2014,PARTIDO ALIANZA REPUBLICANA NACIONALISTA,RAFAEL FEDERICO CASTELLANOS CALDERON,2500
2014,PARTIDO ALIANZA REPUBLICANA NACIONALISTA,JOSE ANTONIO RODRIGUEZ URRUTIA,2400
2014,PARTIDO ALIANZA REPUBLICANA NACIONALISTA,RICARDO DAMIAN HILL ARGÜELLO,2300
2014,PARTIDO ALIANZA REPUBLICANA NACIONALISTA,JOSE ANTONIO RODRIGUEZ FERNANDEZ,"2056,66"
2014,PARTIDO ALIANZA REPUBLICANA NACIONALISTA,JOSE MARIANO QUIROS BARRIOS,2000
2014,PARTIDO ALIANZA REPUBLICANA NACIONALISTA,JULIO ANTONIO GONZALEZ RIVERA,2000
2014,PARTIDO ALIANZA REPUBLICANA NACIONALISTA,MANUEL DE JESUS RODRIGUEZ HUEZO,2000
2014,PARTIDO ALIANZA REPUBLICANA NACIONALISTA,MARLON IVAN MELENDEZ QUIJADA,2000
2014,PARTIDO ALIANZA REPUBLICANA NACIONALISTA,ROBERTO SANCHEZ ALEGRIA ORANTES,2000
2014,PARTIDO ALIANZA REPUBLICANA NACIONALISTA,ROBERTO TRABANINO LOPEZ,2000
2014,PARTIDO ALIANZA REPUBLICANA NACIONALISTA,MARCELINO SAMAYOA RODRIGUEZ,1725
2014,PARTIDO ALIANZA REPUBLICANA NACIONALISTA,"282 PERSONAS NATURALES CON DONACIONES DEBAJO DE $1,520.85 ",227941
2014,PARTIDO ALIANZA REPUBLICANA NACIONALISTA,"147 PERSONAS JURÍDICAS CON DONACIONES DEBAJO DE $5,170.89","146224,4"
2014,PARTIDO DEMOCRATA CRISTIANO PDC,"COMPAÑIA AZUCARERA SALVADOREÑA, S. A. DE C. V.",175000
2014,PARTIDO DEMOCRATA CRISTIANO PDC,"INDUSTRIAS LA CONSTANCIA, S.A. DE C.V.",12500
2014,PARTIDO DEMOCRATA CRISTIANO PDC,"DROGUERIA COMERCIAL SALVADOREÑA, S.A. DE C.V.",10000
2014,PARTIDO DEMOCRATA CRISTIANO PDC,"CORPORACION SANI, S.A DE C.V.","5400,01"
2014,PARTIDO DEMOCRATA CRISTIANO PDC,"LA PIRAMIDE, S.A. DE C.V.","5200,01"
2014,PARTIDO DEMOCRATA CRISTIANO PDC,"LABORATORIOS SUIZOS, S. A. DE C. V.","5200,01"
2014,PARTIDO DEMOCRATA CRISTIANO PDC,RODOLFO ANTONIO PARKER SOTO,2500
2014,PARTIDO DEMOCRATA CRISTIANO PDC,"1 PERSONAS NATURALES CON DONACIONES DEBAJO DE $1,520.85 ","405,2"
2014,PARTIDO DEMOCRATA CRISTIANO PDC,"4 PERSONAS JURÍDICAS CON DONACIONES DEBAJO DE $5,170.89","10311,67"
2014,PARTIDO FRENTE FARABUNDO MARTI PARA LA LIBERACION NACIONAL,"INDUSTRIAS LA CONSTANCIA, S.A. DE C.V.",187500
2014,PARTIDO FRENTE FARABUNDO MARTI PARA LA LIBERACION NACIONAL,ROSA MARIBEL FUENTES DE VASQUEZ,50000
2014,PARTIDO FRENTE FARABUNDO MARTI PARA LA LIBERACION NACIONAL,VICTOR MANUEL VASQUEZ ESCOBAR,50000
2014,PARTIDO FRENTE FARABUNDO MARTI PARA LA LIBERACION NACIONAL,"LATINOAMERICANA DE NEGOCIOS, S. A. DE C. V.",25000
2014,PARTIDO FRENTE FARABUNDO MARTI PARA LA LIBERACION NACIONAL,OTHON SIGFRIDO REYES MORALES,"24174,69"
2014,PARTIDO FRENTE FARABUNDO MARTI PARA LA LIBERACION NACIONAL,IRMA LOURDES PALACIOS VASQUEZ,"16481,99"
2014,PARTIDO FRENTE FARABUNDO MARTI PARA LA LIBERACION NACIONAL,NORMA FIDELIA GUEVARA DE RAMIRIOS,"15037,94"
2014,PARTIDO FRENTE FARABUNDO MARTI PARA LA LIBERACION NACIONAL,LORENA GUADALUPE PEÑA MENDOZA,"13219,12"
2014,PARTIDO FRENTE FARABUNDO MARTI PARA LA LIBERACION NACIONAL,KARINA IVETTE SOSA,"12358,94"
2014,PARTIDO FRENTE FARABUNDO MARTI PARA LA LIBERACION NACIONAL,SALVADOR SANCHEZ CEREN,12240
2014,PARTIDO FRENTE FARABUNDO MARTI PARA LA LIBERACION NACIONAL,SANTIAGO FLORES ALFARO,"11058,84"
2014,PARTIDO FRENTE FARABUNDO MARTI PARA LA LIBERACION NACIONAL,EMMA JULIA FABIAN HERNANDEZ,"10987,89"
2014,PARTIDO FRENTE FARABUNDO MARTI PARA LA LIBERACION NACIONAL,GUILLERMO ANTONIO OLIVO MENDEZ,"10892,09"
2014,PARTIDO FRENTE FARABUNDO MARTI PARA LA LIBERACION NACIONAL,JACKELINE NOEMI RIVERA AVALOS,"10872,09"
2014,PARTIDO FRENTE FARABUNDO MARTI PARA LA LIBERACION NACIONAL,ESTELA YANET HERNANDEZ RODRIGUEZ,"10689,09"
2014,PARTIDO FRENTE FARABUNDO MARTI PARA LA LIBERACION NACIONAL,DARIO ALEJANDRO CHICAS ARGUETA,"10242,79"
2014,PARTIDO FRENTE FARABUNDO MARTI PARA LA LIBERACION NACIONAL,JUAN MANUEL DE JESUS FLORES CORNEJO,"10025,84"
2014,PARTIDO FRENTE FARABUNDO MARTI PARA LA LIBERACION NACIONAL,ROBERTO BUKELE SIMAN,10000
2014,PARTIDO FRENTE FARABUNDO MARTI PARA LA LIBERACION NACIONAL,AUDELIA GUADALUPE LOPEZ DE KLEUTGENS,"9840,19"
2014,PARTIDO FRENTE FARABUNDO MARTI PARA LA LIBERACION NACIONAL,YOHALMO EDMUNDO CABRERA CHACON,"9751,54"
2014,PARTIDO FRENTE FARABUNDO MARTI PARA LA LIBERACION NACIONAL,NERY ARELY DIAZ ARTERO,"9739,14"
2014,PARTIDO FRENTE FARABUNDO MARTI PARA LA LIBERACION NACIONAL,NELSON DE JESUS QUINTANILLA GOMEZ,"9648,39"
2014,PARTIDO FRENTE FARABUNDO MARTI PARA LA LIBERACION NACIONAL,SONIA MARGARITA RODRIGUEZ SIGUENZA,"9355,84"
2014,PARTIDO FRENTE FARABUNDO MARTI PARA LA LIBERACION NACIONAL,JAIME GILBERTO VALDES HERNANDEZ,"9297,09"
2014,PARTIDO FRENTE FARABUNDO MARTI PARA LA LIBERACION NACIONAL,DAVID RODRIGUEZ RIVERA,"9288,94"
2014,PARTIDO FRENTE FARABUNDO MARTI PARA LA LIBERACION NACIONAL,ROSA ALMA CRUZ MARINERO,"9239,54"
2014,PARTIDO FRENTE FARABUNDO MARTI PARA LA LIBERACION NACIONAL,ANTONIO ECHEVERRIA VELIZ,"8779,52"
2014,PARTIDO FRENTE FARABUNDO MARTI PARA LA LIBERACION NACIONAL,CARLOS CORTEZ HERNANDEZ,"8505,84"
2014,PARTIDO FRENTE FARABUNDO MARTI PARA LA LIBERACION NACIONAL,GUILLERMO FRANCISCO MATA BENNETT,"8505,84"
2014,PARTIDO FRENTE FARABUNDO MARTI PARA LA LIBERACION NACIONAL,HORTENSIA MARGARITA LOPEZ QUINTANA,"8505,84"
2014,PARTIDO FRENTE FARABUNDO MARTI PARA LA LIBERACION NACIONAL,RODOLFO ANTONIO MARTINEZ,"8505,84"
2014,PARTIDO FRENTE FARABUNDO MARTI PARA LA LIBERACION NACIONAL,FRANCISCO ROBERTO LORENZANA DURAN,"7816,3"
2014,PARTIDO FRENTE FARABUNDO MARTI PARA LA LIBERACION NACIONAL,RAMON ARISTIDES VALENCIA ARANA,"7444,1"
2014,PARTIDO FRENTE FARABUNDO MARTI PARA LA LIBERACION NACIONAL,ROLANDO MATA FUENTES,"6891,54"
2014,PARTIDO FRENTE FARABUNDO MARTI PARA LA LIBERACION NACIONAL,RAUL OMAR CUELLAR,"6810,95"
2014,PARTIDO FRENTE FARABUNDO MARTI PARA LA LIBERACION NACIONAL,ORESTES FREDESMAN ORTEZ ANDRADE,"6678,55"
2014,PARTIDO FRENTE FARABUNDO MARTI PARA LA LIBERACION NACIONAL,BENITO ANTONIO LARA FERNANDEZ,"6544,1"
2014,PARTIDO FRENTE FARABUNDO MARTI PARA LA LIBERACION NACIONAL,JOSE MAURICIO RIVERA,"6308,07"
2014,PARTIDO FRENTE FARABUNDO MARTI PARA LA LIBERACION NACIONAL,JOSE MANUEL MELGAR HENRIQUEZ,5640
2014,PARTIDO FRENTE FARABUNDO MARTI PARA LA LIBERACION NACIONAL,JUAN PABLO SAMOUR AMAYA,5593
2014,PARTIDO FRENTE FARABUNDO MARTI PARA LA LIBERACION NACIONAL,MISAEL MEJIA MEJIA,"5406,84"
2014,PARTIDO FRENTE FARABUNDO MARTI PARA LA LIBERACION NACIONAL,MARCOS ENRIQUE RODRIGUEZ GONZALEZ,"5287,5"
2014,PARTIDO FRENTE FARABUNDO MARTI PARA LA LIBERACION NACIONAL,ANA XOCHITL MARCHELLI CANALES,"5111,88"
2014,PARTIDO FRENTE FARABUNDO MARTI PARA LA LIBERACION NACIONAL,JOSE SALVADOR ARIAS PEÑATE,"5086,08"
2014,PARTIDO FRENTE FARABUNDO MARTI PARA LA LIBERACION NACIONAL,ANA LUCIA BAIRES DE MARTINEZ,"5029,74"
2014,PARTIDO FRENTE FARABUNDO MARTI PARA LA LIBERACION NACIONAL,OSCAR MIRANDA FLAMENCO,"4974,96"
2014,PARTIDO FRENTE FARABUNDO MARTI PARA LA LIBERACION NACIONAL,DORIS GISELA YAMILETH ALVARENGA ROSALES,"4946,52"
2014,PARTIDO FRENTE FARABUNDO MARTI PARA LA LIBERACION NACIONAL,IRMA MAGDALENA LOPEZ,"4946,52"
2014,PARTIDO FRENTE FARABUNDO MARTI PARA LA LIBERACION NACIONAL,HERBERTH NESTOR MENJIVAR AMAYA,"4823,52"
2014,PARTIDO FRENTE FARABUNDO MARTI PARA LA LIBERACION NACIONAL,ARGENTINA GARCIA VENTURA,"4823,4"
2014,PARTIDO FRENTE FARABUNDO MARTI PARA LA LIBERACION NACIONAL,MAURICIO WILFREDO ESTEBAN ZEPEDA PANAMEÑO,"4823,4"
2014,PARTIDO FRENTE FARABUNDO MARTI PARA LA LIBERACION NACIONAL,TOMAS CHAVEZ ALARCON,"4823,4"
2014,PARTIDO FRENTE FARABUNDO MARTI PARA LA LIBERACION NACIONAL,FRANCISCO RUBEN ALVARADO FUENTES,"4684,95"
2014,PARTIDO FRENTE FARABUNDO MARTI PARA LA LIBERACION NACIONAL,WILLIAM ALFREDO HERNANDEZ,4680
2014,PARTIDO FRENTE FARABUNDO MARTI PARA LA LIBERACION NACIONAL,JORGE GUILLERMO E. SOL PEREZ,"4609,66"
2014,PARTIDO FRENTE FARABUNDO MARTI PARA LA LIBERACION NACIONAL,JOSE EBANAN QUINTANILLA GOMEZ,"4561,2"
2014,PARTIDO FRENTE FARABUNDO MARTI PARA LA LIBERACION NACIONAL,RICARDO ALBERTO IGLESIAS HERRERA,"4536,18"
2014,PARTIDO FRENTE FARABUNDO MARTI PARA LA LIBERACION NACIONAL,OSCAR ANTONIO FERNANDEZ ORELLANA,"4475,4"
2014,PARTIDO FRENTE FARABUNDO MARTI PARA LA LIBERACION NACIONAL,GLADIS MARINA LANDAVERDE PAREDES,"4372,68"
2014,PARTIDO FRENTE FARABUNDO MARTI PARA LA LIBERACION NACIONAL,HECTOR ANTONIO ACEVEDO MORENO,"4372,32"
2014,PARTIDO FRENTE FARABUNDO MARTI PARA LA LIBERACION NACIONAL,DOMINGO MENDOZA CASTANEDA,4340
2014,PARTIDO FRENTE FARABUNDO MARTI PARA LA LIBERACION NACIONAL,CARLA MABEL ALVANES AMAYA,"4300,3"
2014,PARTIDO FRENTE FARABUNDO MARTI PARA LA LIBERACION NACIONAL,EUGENIO CHICAS MARTINEZ,"4173,37"
2014,PARTIDO FRENTE FARABUNDO MARTI PARA LA LIBERACION NACIONAL,NELSON NAPOLEON GARCIA RODRIGUEZ,"4066,36"
2014,PARTIDO FRENTE FARABUNDO MARTI PARA LA LIBERACION NACIONAL,MAURICIO ULISES SANTAMARIA JAIME,"4026,48"
2014,PARTIDO FRENTE FARABUNDO MARTI PARA LA LIBERACION NACIONAL,WALTER ERNESTO MEJIA GRANADOS,"4026,48"
2014,PARTIDO FRENTE FARABUNDO MARTI PARA LA LIBERACION NACIONAL,NIDIA DIAZ,"4020,72"
2014,PARTIDO FRENTE FARABUNDO MARTI PARA LA LIBERACION NACIONAL,JORGE ALBERTO JIMENEZ ORELLANA,"4017,36"
2014,PARTIDO FRENTE FARABUNDO MARTI PARA LA LIBERACION NACIONAL,GLORIA MARIA ANAYA PERLA,3960
2014,PARTIDO FRENTE FARABUNDO MARTI PARA LA LIBERACION NACIONAL,IRMA SEGUNDA AMAYA ECHEVERRIA,3960
2014,PARTIDO FRENTE FARABUNDO MARTI PARA LA LIBERACION NACIONAL,JOSE LEONEL VASQUEZ BUCARO,3960
2014,PARTIDO FRENTE FARABUNDO MARTI PARA LA LIBERACION NACIONAL,JOSE LUIS MERINO,3960
2014,PARTIDO FRENTE FARABUNDO MARTI PARA LA LIBERACION NACIONAL,JOSE RICARDO CRUZ,3960
2014,PARTIDO FRENTE FARABUNDO MARTI PARA LA LIBERACION NACIONAL,MARIA MIRTALA LOPEZ MEJIA,3960
2014,PARTIDO FRENTE FARABUNDO MARTI PARA LA LIBERACION NACIONAL,NERY BONILLA AMAYA,3960
2014,PARTIDO FRENTE FARABUNDO MARTI PARA LA LIBERACION NACIONAL,KARLA GICELA ABREGO CACERES,"3866,52"
2014,PARTIDO FRENTE FARABUNDO MARTI PARA LA LIBERACION NACIONAL,MEDARDO GONZALEZ TREJO,"3862,68"
2014,PARTIDO FRENTE FARABUNDO MARTI PARA LA LIBERACION NACIONAL,GRACIELA ALEJANDRA GAMEZ ZELADA,"3768,72"
2014,PARTIDO FRENTE FARABUNDO MARTI PARA LA LIBERACION NACIONAL,LUIS FRANCISCO LOPEZ GUZMAN,"3768,72"
2014,PARTIDO FRENTE FARABUNDO MARTI PARA LA LIBERACION NACIONAL,BYRON ENRIQUE LARRAZABAL AREVALO,"3742,2"
2014,PARTIDO FRENTE FARABUNDO MARTI PARA LA LIBERACION NACIONAL,IRMA PATRICIA IRAHETA CRUZ,"3709,89"
2014,PARTIDO FRENTE FARABUNDO MARTI PARA LA LIBERACION NACIONAL,OSCAR GUILLERMO RAMIRIOS SANCHEZ,"3692,3"
2014,PARTIDO FRENTE FARABUNDO MARTI PARA LA LIBERACION NACIONAL,DINA YAMILETH ARGUETA AVELAR,"3660,86"
2014,PARTIDO FRENTE FARABUNDO MARTI PARA LA LIBERACION NACIONAL,BLANCA NOEMI COTO ESTRADA,"3619,1"
2014,PARTIDO FRENTE FARABUNDO MARTI PARA LA LIBERACION NACIONAL,PATRICIA JANET MUÑOZ,"3582,36"
2014,PARTIDO FRENTE FARABUNDO MARTI PARA LA LIBERACION NACIONAL,LETY MENDEZ,3480
2014,PARTIDO FRENTE FARABUNDO MARTI PARA LA LIBERACION NACIONAL,LIDUVINA DEL CARMEN MAGARIN DE ESPERANZA,"3429,35"
2014,PARTIDO FRENTE FARABUNDO MARTI PARA LA LIBERACION NACIONAL,MANUEL ALCIDES GALDAMEZ ARDON,"3412,44"
2014,PARTIDO FRENTE FARABUNDO MARTI PARA LA LIBERACION NACIONAL,RICARDO BLADIMIR GONZALEZ,"3364,32"
2014,PARTIDO FRENTE FARABUNDO MARTI PARA LA LIBERACION NACIONAL,NINFA FRANCISCA SANTOS DE QUIJADA,"3346,2"
2014,PARTIDO FRENTE FARABUNDO MARTI PARA LA LIBERACION NACIONAL,JAIME EDGARDO JUAREZ,"3322,3"
2014,PARTIDO FRENTE FARABUNDO MARTI PARA LA LIBERACION NACIONAL,ERNESTO ANTONIO GOMEZ VALENZUELA,3297
2014,PARTIDO FRENTE FARABUNDO MARTI PARA LA LIBERACION NACIONAL,JOSE ATILIO MONTALVO CORDERO,3297
2014,PARTIDO FRENTE FARABUNDO MARTI PARA LA LIBERACION NACIONAL,MIRIAM HAYDEE ZOMETA MERINO,3297
2014,PARTIDO FRENTE FARABUNDO MARTI PARA LA LIBERACION NACIONAL,SONIA ELIZABETH FARFAN MATA,3297
2014,PARTIDO FRENTE FARABUNDO MARTI PARA LA LIBERACION NACIONAL,MARIA OTILIA MATAMOROS DE HERNANDEZ,"3197,52"
2014,PARTIDO FRENTE FARABUNDO MARTI PARA LA LIBERACION NACIONAL,LUIS ALBERTO CORVERA RIVAS,"3128,12"
2014,PARTIDO FRENTE FARABUNDO MARTI PARA LA LIBERACION NACIONAL,FRANCISCO HERRERA,"3017,88"
2014,PARTIDO FRENTE FARABUNDO MARTI PARA LA LIBERACION NACIONAL,MARTA ELENA GARCIA DE RODRIGUEZ,"3017,88"
2014,PARTIDO FRENTE FARABUNDO MARTI PARA LA LIBERACION NACIONAL,ULISES MILTON CAMPOS JARQUIN,"3017,88"
2014,PARTIDO FRENTE FARABUNDO MARTI PARA LA LIBERACION NACIONAL,ZOILA BEATRIZ QUIJADA SOLIS,"2995,8"
2014,PARTIDO FRENTE FARABUNDO MARTI PARA LA LIBERACION NACIONAL,RENE AMILCAR CLAROS,"2990,07"
2014,PARTIDO FRENTE FARABUNDO MARTI PARA LA LIBERACION NACIONAL,TOMAS ANTONIO CAMPOS VILLAFUERTE,"2984,87"
2014,PARTIDO FRENTE FARABUNDO MARTI PARA LA LIBERACION NACIONAL,CRISSIA SUHAN CHAVEZ GARCIA,"2978,69"
2014,PARTIDO FRENTE FARABUNDO MARTI PARA LA LIBERACION NACIONAL,IRIS MARISOL GUERRA HENRIQUEZ,"2950,46"
2014,PARTIDO FRENTE FARABUNDO MARTI PARA LA LIBERACION NACIONAL,EDWIN OSWALDO BAZAN DURAN,"2916,8"
2014,PARTIDO FRENTE FARABUNDO MARTI PARA LA LIBERACION NACIONAL,ELENA DE LAS MERCEDES CERNA PINEDA,"2916,7"
2014,PARTIDO FRENTE FARABUNDO MARTI PARA LA LIBERACION NACIONAL,ELVIA VIOLETA MENJIVAR ESCALANTE,2800
2014,PARTIDO FRENTE FARABUNDO MARTI PARA LA LIBERACION NACIONAL,JAIME ERNESTO MARROQUIN MARTINEZ,"2769,36"
2014,PARTIDO FRENTE FARABUNDO MARTI PARA LA LIBERACION NACIONAL,HUGO MOLINA RODRIGUEZ,"2726,36"
2014,PARTIDO FRENTE FARABUNDO MARTI PARA LA LIBERACION NACIONAL,YEYMI ELIZABETT MUÑOZ MORAN,"2712,48"
2014,PARTIDO FRENTE FARABUNDO MARTI PARA LA LIBERACION NACIONAL,ELIAS ROMERO GOMEZ,2680
2014,PARTIDO FRENTE FARABUNDO MARTI PARA LA LIBERACION NACIONAL,NORMA CRISTINA CORNEJO AMAYA,"2678,96"
2014,PARTIDO FRENTE FARABUNDO MARTI PARA LA LIBERACION NACIONAL,ALBA ELIZABETH MARQUEZ,"2650,72"
2014,PARTIDO FRENTE FARABUNDO MARTI PARA LA LIBERACION NACIONAL,ALEJANDRO RIVERA,"2628,42"
2014,PARTIDO FRENTE FARABUNDO MARTI PARA LA LIBERACION NACIONAL,JOSE ALVARO CORNEJO MENA,"2586,22"
2014,PARTIDO FRENTE FARABUNDO MARTI PARA LA LIBERACION NACIONAL,ANA DAYSI VILLALOBOS MEMBREÑO,2450
2014,PARTIDO FRENTE FARABUNDO MARTI PARA LA LIBERACION NACIONAL,SUSANA GUADALUPE HUEZO HERCULES,"2448,96"
2014,PARTIDO FRENTE FARABUNDO MARTI PARA LA LIBERACION NACIONAL,PATRICIA INES CASTILLO ELIAS DE RIVAS,"2448,6"
2014,PARTIDO FRENTE FARABUNDO MARTI PARA LA LIBERACION NACIONAL,RHINA LILIAN CLARA SALINAS,"2425,92"
2014,PARTIDO FRENTE FARABUNDO MARTI PARA LA LIBERACION NACIONAL,OSCAR EVERARDO CHICAS RODRIGUEZ,2400
2014,PARTIDO FRENTE FARABUNDO MARTI PARA LA LIBERACION NACIONAL,CARLOS ARMANDO JOMA CABRERA,"2336,5"
2014,PARTIDO FRENTE FARABUNDO MARTI PARA LA LIBERACION NACIONAL,JOSE DENNIS CORDOVA ELIZONDO,"2317,86"
2014,PARTIDO FRENTE FARABUNDO MARTI PARA LA LIBERACION NACIONAL,SAMUEL DE JESUS LOPEZ HERNANDEZ,"2315,22"
2014,PARTIDO FRENTE FARABUNDO MARTI PARA LA LIBERACION NACIONAL,ANA MARINA ALVARENGA BARAHONA,"2312,55"
2014,PARTIDO FRENTE FARABUNDO MARTI PARA LA LIBERACION NACIONAL,ISMAEL RECINOS LOPEZ,"2312,21"
2014,PARTIDO FRENTE FARABUNDO MARTI PARA LA LIBERACION NACIONAL,ABNER IVAN TORRES VENTURA,"2307,84"
2014,PARTIDO FRENTE FARABUNDO MARTI PARA LA LIBERACION NACIONAL,JOSE MARGARITO NOLASCO DIAZ,"2307,84"
2014,PARTIDO FRENTE FARABUNDO MARTI PARA LA LIBERACION NACIONAL,JOSE SANTOS MELARA YANES,"2307,84"
2014,PARTIDO FRENTE FARABUNDO MARTI PARA LA LIBERACION NACIONAL,SUSY LISSETH BONILLA FLORES,"2307,84"
2014,PARTIDO FRENTE FARABUNDO MARTI PARA LA LIBERACION NACIONAL,ANGELA MARIA DELEON DE RIOS,"2297,88"
2014,PARTIDO FRENTE FARABUNDO MARTI PARA LA LIBERACION NACIONAL,IVAN EUGENIO ROSALES RIVERA,"2263,44"
2014,PARTIDO FRENTE FARABUNDO MARTI PARA LA LIBERACION NACIONAL,MARIA JOSE MENENDEZ ZOMETA,"2263,44"
2014,PARTIDO FRENTE FARABUNDO MARTI PARA LA LIBERACION NACIONAL,MIGUEL ANGEL SAENZ VARELA,"2262,96"
2014,PARTIDO FRENTE FARABUNDO MARTI PARA LA LIBERACION NACIONAL,JOSE AUGUSTO HERNANDEZ GONZALEZ,"2258,95"
2014,PARTIDO FRENTE FARABUNDO MARTI PARA LA LIBERACION NACIONAL,BLANCA ESTELA BARAHONA DE REYES,"2164,33"
2014,PARTIDO FRENTE FARABUNDO MARTI PARA LA LIBERACION NACIONAL,IDALIA PATRICIA ZEPEDA AZAHAR,"2153,88"
2014,PARTIDO FRENTE FARABUNDO MARTI PARA LA LIBERACION NACIONAL,CARLOS MARIO ZAMBRANO CAMPOS,"2138,74"
2014,PARTIDO FRENTE FARABUNDO MARTI PARA LA LIBERACION NACIONAL,JAIME ALBERTO RECINOS CRESPIN,"2115,36"
2014,PARTIDO FRENTE FARABUNDO MARTI PARA LA LIBERACION NACIONAL,ERIKA PATRICIA ORELLANA DE HUEZO,"2101,08"
2014,PARTIDO FRENTE FARABUNDO MARTI PARA LA LIBERACION NACIONAL,CESAR BALMORE BARAHONA BARAHONA,"2091,84"
2014,PARTIDO FRENTE FARABUNDO MARTI PARA LA LIBERACION NACIONAL,MARTA LORENA ARAUJO,"2057,99"
2014,PARTIDO FRENTE FARABUNDO MARTI PARA LA LIBERACION NACIONAL,JOSE TOMAS MINERO DOMINGUEZ,2057
2014,PARTIDO FRENTE FARABUNDO MARTI PARA LA LIBERACION NACIONAL,CARLOS ALFREDO CASTANEDA MAGAÑA,"2021,04"
2014,PARTIDO FRENTE FARABUNDO MARTI PARA LA LIBERACION NACIONAL,SERGIO ANTONIO SOLORZANO SANTOS,"1975,8"
2014,PARTIDO FRENTE FARABUNDO MARTI PARA LA LIBERACION NACIONAL,JOAQUIN ALFREDO PEÑATE ARDON,"1970,4"
2014,PARTIDO FRENTE FARABUNDO MARTI PARA LA LIBERACION NACIONAL,KARLA BEATRIZ RECINOS RAMIREZ,"1926,24"
2014,PARTIDO FRENTE FARABUNDO MARTI PARA LA LIBERACION NACIONAL,MARIO GUILLERMO MIRANDA ALFARO,"1908,94"
2014,PARTIDO FRENTE FARABUNDO MARTI PARA LA LIBERACION NACIONAL,JUAN JOSE BONILLA RODRIGUEZ,1884
2014,PARTIDO FRENTE FARABUNDO MARTI PARA LA LIBERACION NACIONAL,JULIO CESAR MIRANDA SERVELLON,1881
2014,PARTIDO FRENTE FARABUNDO MARTI PARA LA LIBERACION NACIONAL,ALFREDO SANCHEZ,"1876,8"
2014,PARTIDO FRENTE FARABUNDO MARTI PARA LA LIBERACION NACIONAL,JOSE ANGEL ALVAREZ GALAN,"1872,05"
2014,PARTIDO FRENTE FARABUNDO MARTI PARA LA LIBERACION NACIONAL,JORGE OVIDIO CASTRO RAMOS,"1870,75"
2014,PARTIDO FRENTE FARABUNDO MARTI PARA LA LIBERACION NACIONAL,ANDRES BENEDICTO SANDOVAL VASQUEZ,1800
2014,PARTIDO FRENTE FARABUNDO MARTI PARA LA LIBERACION NACIONAL,DAVID BARAHONA MARROQUIN,"1776,1"
2014,PARTIDO FRENTE FARABUNDO MARTI PARA LA LIBERACION NACIONAL,ANA GULNARA MARROQUIN JOACHIN,"1750,08"
2014,PARTIDO FRENTE FARABUNDO MARTI PARA LA LIBERACION NACIONAL,FATIMA MARGARITA FLORES,"1750,08"
2014,PARTIDO FRENTE FARABUNDO MARTI PARA LA LIBERACION NACIONAL,LUISA GALINA CASCANTE LANDAVERDE,"1750,08"
2014,PARTIDO FRENTE FARABUNDO MARTI PARA LA LIBERACION NACIONAL,JOSE EDMUNDO BONILLA MARTINEZ,1750
2014,PARTIDO FRENTE FARABUNDO MARTI PARA LA LIBERACION NACIONAL,THOMAS DIETRICH BOEKLE,1700
2014,PARTIDO FRENTE FARABUNDO MARTI PARA LA LIBERACION NACIONAL,JAIRO EDGARDO GUZMAN FLORES,"1695,6"
2014,PARTIDO FRENTE FARABUNDO MARTI PARA LA LIBERACION NACIONAL,DAVID FERNANDO RAUDA PERAZA,"1670,88"
2014,PARTIDO FRENTE FARABUNDO MARTI PARA LA LIBERACION NACIONAL,JUAN GARCIA MELARA,1656
2014,PARTIDO FRENTE FARABUNDO MARTI PARA LA LIBERACION NACIONAL,SILVIA IDALIA CARTAGENA DE MARMOL,"1625,8"
2014,PARTIDO FRENTE FARABUNDO MARTI PARA LA LIBERACION NACIONAL,FRANCISCO SALVADOR HIREZI MORATAYA,1600
2014,PARTIDO FRENTE FARABUNDO MARTI PARA LA LIBERACION NACIONAL,YANCI GUADALUPE URBINA GONZALEZ,1600
2014,PARTIDO FRENTE FARABUNDO MARTI PARA LA LIBERACION NACIONAL,NORMA ALICIA REYES ANDRADE,"1578,32"
2014,PARTIDO FRENTE FARABUNDO MARTI PARA LA LIBERACION NACIONAL,RICARDO ANTONIO SANTANA MOLINA,"1546,88"
2014,PARTIDO FRENTE FARABUNDO MARTI PARA LA LIBERACION NACIONAL,"2015 PERSONAS NATURALES CON DONACIONES DEBAJO DE $1,520.85 ","391238,49"
2014,PARTIDO FRENTE FARABUNDO MARTI PARA LA LIBERACION NACIONAL,"7 PERSONAS JURÍDICAS CON DONACIONES DEBAJO DE $5,170.89",10915
