Año,Partido,NOMBRE DONANTE,MONTO  DONACION
2016,PARTIDO FRENTE FARABUNDO MARTI PARA LA LIBERACION NACIONAL,FLORES ALFARO SANTIAGO                  ,"16314,12"
2016,PARTIDO FRENTE FARABUNDO MARTI PARA LA LIBERACION NACIONAL,RIVERA AVALOS JACKELINE NOEMI           ,"14366,77"
2016,PARTIDO FRENTE FARABUNDO MARTI PARA LA LIBERACION NACIONAL,PEÑA MENDOZA LORENA GUADALUPE           ,"14265,84"
2016,PARTIDO FRENTE FARABUNDO MARTI PARA LA LIBERACION NACIONAL,SANCHEZ CEREN SALVADOR                  ,13260
2016,PARTIDO FRENTE FARABUNDO MARTI PARA LA LIBERACION NACIONAL,GUEVARA  DE RAMIRIOS NORMA FIDELIA      ,"12918,84"
2016,PARTIDO FRENTE FARABUNDO MARTI PARA LA LIBERACION NACIONAL,MATA BENNETT GUILLERMO FRANCISCO        ,"12519,12"
2016,PARTIDO FRENTE FARABUNDO MARTI PARA LA LIBERACION NACIONAL,SOSA KARINA IVETTE                      ,"12314,49"
2016,PARTIDO FRENTE FARABUNDO MARTI PARA LA LIBERACION NACIONAL,FLORES CORNEJO JUAN MANUEL DE JESUS     ,"10505,84"
2016,PARTIDO FRENTE FARABUNDO MARTI PARA LA LIBERACION NACIONAL,RODRIGUEZ SIGUENZA SONIA MARGARITA      ,"10334,79"
2016,PARTIDO FRENTE FARABUNDO MARTI PARA LA LIBERACION NACIONAL,LOPEZ  DE KLEUTGENS AUDELIA             ,"9843,02"
2016,PARTIDO FRENTE FARABUNDO MARTI PARA LA LIBERACION NACIONAL,SANDOVAL LEIVA JAIME ORLANDO            ,"9690,22"
2016,PARTIDO FRENTE FARABUNDO MARTI PARA LA LIBERACION NACIONAL,QUIJADA SOLIS ZOILA BEATRIZ             ,"9561,39"
2016,PARTIDO FRENTE FARABUNDO MARTI PARA LA LIBERACION NACIONAL,BLANDINO NERIO ROGER ALBERTO            ,"9318,84"
2016,PARTIDO FRENTE FARABUNDO MARTI PARA LA LIBERACION NACIONAL,CRUZ MARINERO ROSA ALMA                 ,"9075,14"
2016,PARTIDO FRENTE FARABUNDO MARTI PARA LA LIBERACION NACIONAL,ALVARENGA BARAHONA ANA MARINA           ,"8805,29"
2016,PARTIDO FRENTE FARABUNDO MARTI PARA LA LIBERACION NACIONAL,GOMEZ PERLA MARIA ELIZABETH             ,"8755,84"
2016,PARTIDO FRENTE FARABUNDO MARTI PARA LA LIBERACION NACIONAL,GARCIA CARLOS ALBERTO                   ,"8605,84"
2016,PARTIDO FRENTE FARABUNDO MARTI PARA LA LIBERACION NACIONAL,CABRERA CHACON YOHALMO EDMUNDO          ,"8505,84"
2016,PARTIDO FRENTE FARABUNDO MARTI PARA LA LIBERACION NACIONAL,LOPEZ QUINTANA HORTENSIA MARGARITA      ,"8505,84"
2016,PARTIDO FRENTE FARABUNDO MARTI PARA LA LIBERACION NACIONAL,VALDES HERNANDEZ JAIME GILBERTO         ,"8505,84"
2016,PARTIDO FRENTE FARABUNDO MARTI PARA LA LIBERACION NACIONAL,MEJIA MEJIA MISAEL                      ,"8505,84"
2016,PARTIDO FRENTE FARABUNDO MARTI PARA LA LIBERACION NACIONAL,DIAZ NIDIA                              ,"8505,84"
2016,PARTIDO FRENTE FARABUNDO MARTI PARA LA LIBERACION NACIONAL,MATA FUENTES ROLANDO                    ,"8505,84"
2016,PARTIDO FRENTE FARABUNDO MARTI PARA LA LIBERACION NACIONAL,MEJIA HERNANDEZ CALIXTO                 ,"8505,84"
2016,PARTIDO FRENTE FARABUNDO MARTI PARA LA LIBERACION NACIONAL,CORNEJO AMAYA NORMA CRISTINA            ,"8505,84"
2016,PARTIDO FRENTE FARABUNDO MARTI PARA LA LIBERACION NACIONAL,BAIRES  DE MARTINEZ ANA LUCIA           ,"8505,84"
2016,PARTIDO FRENTE FARABUNDO MARTI PARA LA LIBERACION NACIONAL,MELARA YANES JOSE SANTOS                ,"8505,84"
2016,PARTIDO FRENTE FARABUNDO MARTI PARA LA LIBERACION NACIONAL,HERNANDEZ RODRIGUEZ ESTELA YANET        ,"8505,84"
2016,PARTIDO FRENTE FARABUNDO MARTI PARA LA LIBERACION NACIONAL,MARTINEZ RODOLFO ANTONIO                ,"8505,84"
2016,PARTIDO FRENTE FARABUNDO MARTI PARA LA LIBERACION NACIONAL,QUINTANILLA GOMEZ NELSON DE JESUS       ,"8505,84"
2016,PARTIDO FRENTE FARABUNDO MARTI PARA LA LIBERACION NACIONAL,CUELLAR RAUL OMAR                       ,"8232,82"
2016,PARTIDO FRENTE FARABUNDO MARTI PARA LA LIBERACION NACIONAL,LOPEZ VILLAFUERTE DAVID ANTONIO         ,8000
2016,PARTIDO FRENTE FARABUNDO MARTI PARA LA LIBERACION NACIONAL,RODRIGUEZ GONZALEZ MARCOS ENRIQUE       ,7800
2016,PARTIDO FRENTE FARABUNDO MARTI PARA LA LIBERACION NACIONAL,REYES MORALES OTHON SIGFRIDO            ,7000
2016,PARTIDO FRENTE FARABUNDO MARTI PARA LA LIBERACION NACIONAL,ALVARADO FUENTES FRANCISCO RUBEN        ,6600
2016,PARTIDO FRENTE FARABUNDO MARTI PARA LA LIBERACION NACIONAL,HASBUN  BARAKE   FRANZI                 ,6300
2016,PARTIDO FRENTE FARABUNDO MARTI PARA LA LIBERACION NACIONAL,MENJIVAR ESCALANTE ELVIA VIOLETA        ,6000
2016,PARTIDO FRENTE FARABUNDO MARTI PARA LA LIBERACION NACIONAL,GONZALEZ MEDARDO                        ,"5797,33"
2016,PARTIDO FRENTE FARABUNDO MARTI PARA LA LIBERACION NACIONAL,ALVANES AMAYA CARLA MABEL               ,5460
2016,PARTIDO FRENTE FARABUNDO MARTI PARA LA LIBERACION NACIONAL,MELGAR HENRIQUEZ JOSE MANUEL            ,5400
2016,PARTIDO FRENTE FARABUNDO MARTI PARA LA LIBERACION NACIONAL,RIVERA JOSE MAURICIO                    ,"5200,44"
2016,PARTIDO FRENTE FARABUNDO MARTI PARA LA LIBERACION NACIONAL,LANDAVERDE PAREDES GLADIS MARINA        ,"5101,46"
2016,PARTIDO FRENTE FARABUNDO MARTI PARA LA LIBERACION NACIONAL,ARIAS PEÑATE JOSE SALVADOR              ,"5086,08"
2016,PARTIDO FRENTE FARABUNDO MARTI PARA LA LIBERACION NACIONAL,HERNANDEZ ALAS CARLOS EVARISTO          ,"4907,5"
2016,PARTIDO FRENTE FARABUNDO MARTI PARA LA LIBERACION NACIONAL,ORTEZ ANDRADE ORESTES FREDESMAN         ,4860
2016,PARTIDO FRENTE FARABUNDO MARTI PARA LA LIBERACION NACIONAL,MARCHELLI CANALES ANA XOCHITL           ,"4848,48"
2016,PARTIDO FRENTE FARABUNDO MARTI PARA LA LIBERACION NACIONAL,MENJIVAR AMAYA HERBERTH NESTOR          ,"4823,52"
2016,PARTIDO FRENTE FARABUNDO MARTI PARA LA LIBERACION NACIONAL,ZEPEDA PANAMEÑO MAURICIO WILFREDO ESTEBA,"4823,4"
2016,PARTIDO FRENTE FARABUNDO MARTI PARA LA LIBERACION NACIONAL,GARCIA VENTURA ARGENTINA                ,"4823,4"
2016,PARTIDO FRENTE FARABUNDO MARTI PARA LA LIBERACION NACIONAL,CHAVEZ ALARCON TOMAS                    ,"4823,4"
2016,PARTIDO FRENTE FARABUNDO MARTI PARA LA LIBERACION NACIONAL,MENJIVAR DIAZ WALTER ULISES             ,4800
2016,PARTIDO FRENTE FARABUNDO MARTI PARA LA LIBERACION NACIONAL,ACEVEDO MORENO HECTOR ANTONIO           ,"4372,32"
2016,PARTIDO FRENTE FARABUNDO MARTI PARA LA LIBERACION NACIONAL,VALENCIA ARANA RAMON ARISTIDES          ,4200
2016,PARTIDO FRENTE FARABUNDO MARTI PARA LA LIBERACION NACIONAL,ALVARENGA PERDOMO DORIS GISELA YAMILET  ,"4122,1"
2016,PARTIDO FRENTE FARABUNDO MARTI PARA LA LIBERACION NACIONAL,MEJIA GRANADOS WALTER ERNESTO           ,"4026,48"
2016,PARTIDO FRENTE FARABUNDO MARTI PARA LA LIBERACION NACIONAL,SANTAMARIA JAIME MAURICIO ULISES        ,"4026,48"
2016,PARTIDO FRENTE FARABUNDO MARTI PARA LA LIBERACION NACIONAL,CAMPOS JARQUIN ULISES MILTON            ,4002
2016,PARTIDO FRENTE FARABUNDO MARTI PARA LA LIBERACION NACIONAL,LOPEZ MEJIA MARIA MIRTALA               ,3960
2016,PARTIDO FRENTE FARABUNDO MARTI PARA LA LIBERACION NACIONAL,AMAYA ECHEVERRIA IRMA SEGUNDA           ,3960
2016,PARTIDO FRENTE FARABUNDO MARTI PARA LA LIBERACION NACIONAL,BONILLA AMAYA NERY                      ,3960
2016,PARTIDO FRENTE FARABUNDO MARTI PARA LA LIBERACION NACIONAL,HERNANDEZ WILLIAM ALFREDO               ,3960
2016,PARTIDO FRENTE FARABUNDO MARTI PARA LA LIBERACION NACIONAL,CRUZ JOSE RICARDO                       ,3960
2016,PARTIDO FRENTE FARABUNDO MARTI PARA LA LIBERACION NACIONAL,ABREGO CACERES KARLA GICELA             ,"3866,52"
2016,PARTIDO FRENTE FARABUNDO MARTI PARA LA LIBERACION NACIONAL,MORALES GARCIA LUIS HECTOR              ,"3787,29"
2016,PARTIDO FRENTE FARABUNDO MARTI PARA LA LIBERACION NACIONAL,SIBRIAN GALVEZ CECILIO VIDAL            ,"3787,29"
2016,PARTIDO FRENTE FARABUNDO MARTI PARA LA LIBERACION NACIONAL,GAMEZ ZELADA GRACIELA ALEJANDRA         ,"3768,72"
2016,PARTIDO FRENTE FARABUNDO MARTI PARA LA LIBERACION NACIONAL,CLARA SALINAS RHINA LILIAN              ,"3742,44"
2016,PARTIDO FRENTE FARABUNDO MARTI PARA LA LIBERACION NACIONAL,SOSA VARGAS DAGOBERTO                   ,"3742,44"
2016,PARTIDO FRENTE FARABUNDO MARTI PARA LA LIBERACION NACIONAL,CRUZ SOSA JACOBO                        ,"3742,35"
2016,PARTIDO FRENTE FARABUNDO MARTI PARA LA LIBERACION NACIONAL,JUAREZ JAIME EDGARDO                    ,"3654,53"
2016,PARTIDO FRENTE FARABUNDO MARTI PARA LA LIBERACION NACIONAL,HIREZI MORATAYA FRANCISCO SALVADOR      ,3620
2016,PARTIDO FRENTE FARABUNDO MARTI PARA LA LIBERACION NACIONAL,MUÑOZ MORAN YEYMI ELIZABETT             ,3600
2016,PARTIDO FRENTE FARABUNDO MARTI PARA LA LIBERACION NACIONAL,VILLALOBOS MEMBREÑO ANA DAYSI           ,3600
2016,PARTIDO FRENTE FARABUNDO MARTI PARA LA LIBERACION NACIONAL,MUÑOZ PATRICIA JANET                    ,"3582,36"
2016,PARTIDO FRENTE FARABUNDO MARTI PARA LA LIBERACION NACIONAL,CASTANEDA MAGAÑA CARLOS ALFREDO         ,"3536,75"
2016,PARTIDO FRENTE FARABUNDO MARTI PARA LA LIBERACION NACIONAL,MATAMOROS  DE HERNANDEZ MARIA OTILIA    ,"3501,27"
2016,PARTIDO FRENTE FARABUNDO MARTI PARA LA LIBERACION NACIONAL,CARCAMO HERRERA STANIS AUGUSTO          ,3500
2016,PARTIDO FRENTE FARABUNDO MARTI PARA LA LIBERACION NACIONAL,PADILLA JOSE SALOMON                    ,"3438,1"
2016,PARTIDO FRENTE FARABUNDO MARTI PARA LA LIBERACION NACIONAL,SUAZO ALVAREZ VICTOR HUGO               ,"3407,84"
2016,PARTIDO FRENTE FARABUNDO MARTI PARA LA LIBERACION NACIONAL,ANAYA MARTINEZ VANESSA CAROLINA         ,"3364,32"
2016,PARTIDO FRENTE FARABUNDO MARTI PARA LA LIBERACION NACIONAL,FERNANDEZ ORELLANA OSCAR ANTONIO        ,"3356,55"
2016,PARTIDO FRENTE FARABUNDO MARTI PARA LA LIBERACION NACIONAL,MIRANDA SERVELLON JULIO CESAR           ,3355
2016,PARTIDO FRENTE FARABUNDO MARTI PARA LA LIBERACION NACIONAL,SANTOS  DE QUIJADA NINFA FRANCISCA      ,"3346,2"
2016,PARTIDO FRENTE FARABUNDO MARTI PARA LA LIBERACION NACIONAL,PAZ JOSE SIMON                          ,"3324,31"
2016,PARTIDO FRENTE FARABUNDO MARTI PARA LA LIBERACION NACIONAL,ZOMETA MERINO MIRIAM HAYDEE             ,3297
2016,PARTIDO FRENTE FARABUNDO MARTI PARA LA LIBERACION NACIONAL,MONTALVO CORDERO JOSE ATILIO            ,3297
2016,PARTIDO FRENTE FARABUNDO MARTI PARA LA LIBERACION NACIONAL,FARFAN MATA SONIA ELIZABETH             ,3297
2016,PARTIDO FRENTE FARABUNDO MARTI PARA LA LIBERACION NACIONAL,GUZMAN GALAN MARIA ESTER                ,3252
2016,PARTIDO FRENTE FARABUNDO MARTI PARA LA LIBERACION NACIONAL,GONZALEZ FLORES DENYS GUSTAVO           ,3252
2016,PARTIDO FRENTE FARABUNDO MARTI PARA LA LIBERACION NACIONAL,VALENCIA GOMEZ JUAN CARLOS              ,3252
2016,PARTIDO FRENTE FARABUNDO MARTI PARA LA LIBERACION NACIONAL,ELIAS ABREGO KARIME                     ,3250
2016,PARTIDO FRENTE FARABUNDO MARTI PARA LA LIBERACION NACIONAL,VASQUEZ BUCARO JOSE LEONEL              ,3240
2016,PARTIDO FRENTE FARABUNDO MARTI PARA LA LIBERACION NACIONAL,MERINO JOSE LUIS                        ,3240
2016,PARTIDO FRENTE FARABUNDO MARTI PARA LA LIBERACION NACIONAL,ANAYA PERLA GLORIA MARIA                ,3240
2016,PARTIDO FRENTE FARABUNDO MARTI PARA LA LIBERACION NACIONAL,BARAHONA MARROQUIN DAVID                ,"3196,98"
2016,PARTIDO FRENTE FARABUNDO MARTI PARA LA LIBERACION NACIONAL,LLARULL LLINAS RAUL OSVALDO             ,"3112,2"
2016,PARTIDO FRENTE FARABUNDO MARTI PARA LA LIBERACION NACIONAL,HERRERA FRANCISCO                       ,"3017,88"
2016,PARTIDO FRENTE FARABUNDO MARTI PARA LA LIBERACION NACIONAL,GARCIA  DE RODRIGUEZ MARTA ELENA        ,"3017,88"
2016,PARTIDO FRENTE FARABUNDO MARTI PARA LA LIBERACION NACIONAL,SANTAMARIA CHAVEZ MARIA ELENA           ,"2891,13"
2016,PARTIDO FRENTE FARABUNDO MARTI PARA LA LIBERACION NACIONAL,MENDOZA CASTANEDA DOMINGO               ,2800
2016,PARTIDO FRENTE FARABUNDO MARTI PARA LA LIBERACION NACIONAL,MARROQUIN MARTINEZ JAIME ERNESTO        ,"2769,36"
2016,PARTIDO FRENTE FARABUNDO MARTI PARA LA LIBERACION NACIONAL,MAGARIN  DE ESPERANZA LIDUVINA DEL CARME,"2744,35"
2016,PARTIDO FRENTE FARABUNDO MARTI PARA LA LIBERACION NACIONAL,CRUZ ORELLANA CAYETANO AMBERLIO         ,"2727,16"
2016,PARTIDO FRENTE FARABUNDO MARTI PARA LA LIBERACION NACIONAL,GUERRA HENRIQUEZ IRIS MARISOL           ,"2719,09"
2016,PARTIDO FRENTE FARABUNDO MARTI PARA LA LIBERACION NACIONAL,CASTILLO ELIAS DE RIVAS PATRICIA INES   ,"2652,65"
2016,PARTIDO FRENTE FARABUNDO MARTI PARA LA LIBERACION NACIONAL,BATRES GARAY LUIS ALBERTO               ,"2611,59"
2016,PARTIDO FRENTE FARABUNDO MARTI PARA LA LIBERACION NACIONAL,FLORES PAREDES LAZARO ANTONIO           ,"2601,8"
2016,PARTIDO FRENTE FARABUNDO MARTI PARA LA LIBERACION NACIONAL,ARAUJO MARTA LORENA                     ,2600
2016,PARTIDO FRENTE FARABUNDO MARTI PARA LA LIBERACION NACIONAL,CHAVEZ GARCIA CRISSIA SUHAN             ,"2582,6"
2016,PARTIDO FRENTE FARABUNDO MARTI PARA LA LIBERACION NACIONAL,ARGUETA AVELAR DINA YAMILETH            ,"2521,59"
2016,PARTIDO FRENTE FARABUNDO MARTI PARA LA LIBERACION NACIONAL,LOPEZ MORALES RENE ROBERTO              ,2500
2016,PARTIDO FRENTE FARABUNDO MARTI PARA LA LIBERACION NACIONAL,HUEZO HERCULES SUSANA GUADALUPE         ,"2448,96"
2016,PARTIDO FRENTE FARABUNDO MARTI PARA LA LIBERACION NACIONAL,VENTURA VICENTE                         ,2400
2016,PARTIDO FRENTE FARABUNDO MARTI PARA LA LIBERACION NACIONAL,SANCHEZ CAMPOS THANIA MARCELA           ,"2342,88"
2016,PARTIDO FRENTE FARABUNDO MARTI PARA LA LIBERACION NACIONAL,REYES ANDRADE NORMA ALICIA              ,"2342,88"
2016,PARTIDO FRENTE FARABUNDO MARTI PARA LA LIBERACION NACIONAL,GOITIA ARZE WILLY ALFONSO               ,"2330,48"
2016,PARTIDO FRENTE FARABUNDO MARTI PARA LA LIBERACION NACIONAL,LOPEZ HERNANDEZ SAMUEL DE JESUS         ,"2312,55"
2016,PARTIDO FRENTE FARABUNDO MARTI PARA LA LIBERACION NACIONAL,BONILLA FLORES SUSY LISSETH             ,"2312,55"
2016,PARTIDO FRENTE FARABUNDO MARTI PARA LA LIBERACION NACIONAL,FABIAN HERNANDEZ EMMA JULIA             ,"2307,84"
2016,PARTIDO FRENTE FARABUNDO MARTI PARA LA LIBERACION NACIONAL,PALMA ZALDAÑA CARLOS ALBERTO            ,"2307,84"
2016,PARTIDO FRENTE FARABUNDO MARTI PARA LA LIBERACION NACIONAL,REYES REALES KARLA MARIA                ,"2307,84"
2016,PARTIDO FRENTE FARABUNDO MARTI PARA LA LIBERACION NACIONAL,CORDOVA ELIZONDO JOSE DENNIS            ,"2307,84"
2016,PARTIDO FRENTE FARABUNDO MARTI PARA LA LIBERACION NACIONAL,RODRIGUEZ RIVERA DAVID                  ,"2307,84"
2016,PARTIDO FRENTE FARABUNDO MARTI PARA LA LIBERACION NACIONAL,MARQUEZ ALBA ELIZABETH                  ,"2307,84"
2016,PARTIDO FRENTE FARABUNDO MARTI PARA LA LIBERACION NACIONAL,ZAMBRANO CAMPOS CARLOS MARIO            ,"2307,84"
2016,PARTIDO FRENTE FARABUNDO MARTI PARA LA LIBERACION NACIONAL,NOLASCO DIAZ JOSE MARGARITO             ,"2307,84"
2016,PARTIDO FRENTE FARABUNDO MARTI PARA LA LIBERACION NACIONAL,TORRES VENTURA ABNER IVAN               ,"2307,84"
2016,PARTIDO FRENTE FARABUNDO MARTI PARA LA LIBERACION NACIONAL,REYES GRANADOS JOSE NOHE                ,"2307,84"
2016,PARTIDO FRENTE FARABUNDO MARTI PARA LA LIBERACION NACIONAL,RAMIRIOS SANCHEZ OSCAR GUILLERMO        ,"2279,45"
2016,PARTIDO FRENTE FARABUNDO MARTI PARA LA LIBERACION NACIONAL,MENENDEZ ZOMETA MARIA JOSE              ,"2263,44"
2016,PARTIDO FRENTE FARABUNDO MARTI PARA LA LIBERACION NACIONAL,ROSALES RIVERA IVAN EUGENIO             ,"2263,44"
2016,PARTIDO FRENTE FARABUNDO MARTI PARA LA LIBERACION NACIONAL,SAENZ VARELA MIGUEL ANGEL               ,"2262,96"
2016,PARTIDO FRENTE FARABUNDO MARTI PARA LA LIBERACION NACIONAL,WOLF  HERRERA MANUELA ANNA              ,"2225,51"
2016,PARTIDO FRENTE FARABUNDO MARTI PARA LA LIBERACION NACIONAL,SANCHEZ HERRERA SAUL                    ,2220
2016,PARTIDO FRENTE FARABUNDO MARTI PARA LA LIBERACION NACIONAL,LINARES RIVERA EDUARDO ALFONSO          ,2200
2016,PARTIDO FRENTE FARABUNDO MARTI PARA LA LIBERACION NACIONAL,BONILLA MARTINEZ JOSE EDMUNDO           ,2200
2016,PARTIDO FRENTE FARABUNDO MARTI PARA LA LIBERACION NACIONAL,CORNEJO ZAMORA MANUEL DE JESUS          ,"2193,23"
2016,PARTIDO FRENTE FARABUNDO MARTI PARA LA LIBERACION NACIONAL,VILLEGAS  DE PINEDA MARIA ISABEL        ,2179
2016,PARTIDO FRENTE FARABUNDO MARTI PARA LA LIBERACION NACIONAL,BENAVIDES  DE MORALES BLANCA MIRNA      ,2175
2016,PARTIDO FRENTE FARABUNDO MARTI PARA LA LIBERACION NACIONAL,RIVERA GARCIA LUIS BALTAZAR             ,"2091,84"
2016,PARTIDO FRENTE FARABUNDO MARTI PARA LA LIBERACION NACIONAL,RECINOS CALLES SANDRA LORENA            ,"2091,84"
2016,PARTIDO FRENTE FARABUNDO MARTI PARA LA LIBERACION NACIONAL,ARENDS BARTHEL CAREL                    ,"2091,84"
2016,PARTIDO FRENTE FARABUNDO MARTI PARA LA LIBERACION NACIONAL,ZUNIGA JORGE ALBERTO                    ,"2091,84"
2016,PARTIDO FRENTE FARABUNDO MARTI PARA LA LIBERACION NACIONAL,BARAHONA BARAHONA CESAR BALMORE         ,"2091,84"
2016,PARTIDO FRENTE FARABUNDO MARTI PARA LA LIBERACION NACIONAL,BONILLA RODRIGUEZ JUAN JOSE             ,"2072,4"
2016,PARTIDO FRENTE FARABUNDO MARTI PARA LA LIBERACION NACIONAL,MARROQUIN JOACHIN ANA GULNARA           ,"2064,58"
2016,PARTIDO FRENTE FARABUNDO MARTI PARA LA LIBERACION NACIONAL,MENDEZ LETY                             ,2030
2016,PARTIDO FRENTE FARABUNDO MARTI PARA LA LIBERACION NACIONAL,QUINTEROS AGUILAR MANUEL ORLANDO        ,"1926,72"
2016,PARTIDO FRENTE FARABUNDO MARTI PARA LA LIBERACION NACIONAL,CASTANEDA ORANTES MORENA ELIZABETH      ,"1917,51"
2016,PARTIDO FRENTE FARABUNDO MARTI PARA LA LIBERACION NACIONAL,ROMERO GOMEZ ELIAS                      ,1880
2016,PARTIDO FRENTE FARABUNDO MARTI PARA LA LIBERACION NACIONAL,SANCHEZ ALFREDO                         ,"1876,8"
2016,PARTIDO FRENTE FARABUNDO MARTI PARA LA LIBERACION NACIONAL,BOEKLE THOMAS DIETRICH                  ,1850
2016,PARTIDO FRENTE FARABUNDO MARTI PARA LA LIBERACION NACIONAL,ORELLANA  DE HUEZO ERIKA PATRICIA       ,"1818,36"
2016,PARTIDO FRENTE FARABUNDO MARTI PARA LA LIBERACION NACIONAL,AREVALO RIVERA KELLY MARIBEL            ,1800
2016,PARTIDO FRENTE FARABUNDO MARTI PARA LA LIBERACION NACIONAL,CARTAGENA DE MARMOL SILVIA IDALIA       ,"1788,38"
2016,PARTIDO FRENTE FARABUNDO MARTI PARA LA LIBERACION NACIONAL,FLORES FATIMA MARGARITA                 ,"1750,08"
2016,PARTIDO FRENTE FARABUNDO MARTI PARA LA LIBERACION NACIONAL,CASCANTE LANDAVERDE LUISA GALINA        ,"1750,08"
2016,PARTIDO FRENTE FARABUNDO MARTI PARA LA LIBERACION NACIONAL,TOBAR SERRANO JOSE APOLONIO             ,"1730,88"
2016,PARTIDO FRENTE FARABUNDO MARTI PARA LA LIBERACION NACIONAL,PALACIOS JULIO ERNESTO                  ,"1730,64"
2016,PARTIDO FRENTE FARABUNDO MARTI PARA LA LIBERACION NACIONAL,ZEPEDA AZAHAR ADRIANA BEATRIZ           ,"1693,38"
2016,PARTIDO FRENTE FARABUNDO MARTI PARA LA LIBERACION NACIONAL,RAUDA PERAZA DAVID FERNANDO             ,"1670,88"
2016,PARTIDO FRENTE FARABUNDO MARTI PARA LA LIBERACION NACIONAL,MONTENEGRO  DE ARAGON DORIS AIDA        ,"1668,94"
2016,PARTIDO FRENTE FARABUNDO MARTI PARA LA LIBERACION NACIONAL,GARCIA MELARA JUAN                      ,1656
2016,PARTIDO FRENTE FARABUNDO MARTI PARA LA LIBERACION NACIONAL,ALFARO MOLINA HILDA JESSENIA            ,"1651,19"
2016,PARTIDO FRENTE FARABUNDO MARTI PARA LA LIBERACION NACIONAL,CORVERA RIVAS LUIS ALBERTO              ,"1620,48"
2016,PARTIDO FRENTE FARABUNDO MARTI PARA LA LIBERACION NACIONAL,MARTINEZ RAUDALES WALTER ORLANDO        ,"1597,73"
2016,PARTIDO FRENTE FARABUNDO MARTI PARA LA LIBERACION NACIONAL,ROSA ALVARADO FREDY                     ,1584
2016,PARTIDO FRENTE FARABUNDO MARTI PARA LA LIBERACION NACIONAL,ALVARENGA CHINCHILLA MARIA ESTER        ,"1569,06"
2016,PARTIDO FRENTE FARABUNDO MARTI PARA LA LIBERACION NACIONAL,VILLALTA REINA GUADALUPE                ,"1562,45"
2016,PARTIDO FRENTE FARABUNDO MARTI PARA LA LIBERACION NACIONAL,ORTIZ CORTEZ LUIS ANTONIO               ,1562
2016,PARTIDO FRENTE FARABUNDO MARTI PARA LA LIBERACION NACIONAL,CARTAGENA ARIAS PATRICIA DEL CARMEN     ,"1540,32"
2016,PARTIDO FRENTE FARABUNDO MARTI PARA LA LIBERACION NACIONAL,DE LEON HERRERA PABLO CESAR             ,"1540,32"
2016,PARTIDO FRENTE FARABUNDO MARTI PARA LA LIBERACION NACIONAL,"1910 PERSONAS NATURALES CON DONACIONES DEBAJO DE $1,520.85 ","392227,05"
2016,PARTIDO DE CONCERTACIÓN NACIONAL,RUBIO ECHEGOYEN MIGUEL ANGEL            ,13550
2016,PARTIDO DE CONCERTACIÓN NACIONAL,AIRPORT CHANNEL CORPORATION S.A. DE C.V.,9000
2016,PARTIDO DE CONCERTACIÓN NACIONAL,ALFARO ALVARENGA  FABIO WILFRIDO        ,3500
2016,PARTIDO DE CONCERTACIÓN NACIONAL,RODRIGUEZ DE ALFARO  ANA  PATRICIA      ,2700
2016,PARTIDO DE CONCERTACIÓN NACIONAL,"27 PERSONAS NATURALES CON DONACIONES DEBAJO DE $1,520.85 ","15862,87"
2016,PARTIDO DE CONCERTACIÓN NACIONAL,"5 PERSONAS JURÍDICAS CON DONACIONES DEBAJO DE $5,170.89","5708,87"
2016,PARTIDO DEMOCRATA CRISTIANO PDC,PARKER SOTO GUSTAVO ENRIQUE             ,10000
2016,PARTIDO DEMOCRATA CRISTIANO PDC,NUÑEZ ALGUERA EDWIN PATRICIO            ,2400
2016,PARTIDO DEMOCRATA CRISTIANO PDC,OLIVA DE NUÑEZ BLANCA MARIBEL           ,1800
2016,PARTIDO DEMOCRATA CRISTIANO PDC,"35 PERSONAS NATURALES CON DONACIONES DEBAJO DE $1,520.85 ",8580
2016,PARTIDO ALIANZA REPUBLICANA NACIONALISTA,"INVERSIONES BOLIVAR, S.A. DE C.V.       ","203267,17"
2016,PARTIDO ALIANZA REPUBLICANA NACIONALISTA,"SAN CRESPIN, S.A. DE C.V.               ","203123,36"
2016,PARTIDO ALIANZA REPUBLICANA NACIONALISTA,"PUBLICIDAD COMERCIAL, S.A. DE C.V.      ",115027
2016,PARTIDO ALIANZA REPUBLICANA NACIONALISTA,"SERVICIOS LOURDES, S.A. DE C.V.         ",70000
2016,PARTIDO ALIANZA REPUBLICANA NACIONALISTA,"DROGUERIA SANTA LUCIA, S.A. DE C.V.     ","60499,97"
2016,PARTIDO ALIANZA REPUBLICANA NACIONALISTA,"AVICOLA SALVADOREÑA, S.A. DE C.V.       ",53000
2016,PARTIDO ALIANZA REPUBLICANA NACIONALISTA,"METROCENTRO, S.A. DE C.V.               ",50000
2016,PARTIDO ALIANZA REPUBLICANA NACIONALISTA,"CIA. HOTELERA SALVADOREÑA, S.A.         ",50000
2016,PARTIDO ALIANZA REPUBLICANA NACIONALISTA,"DESARROLLOS INMOBILIARIOS COMERCIALES, S",50000
2016,PARTIDO ALIANZA REPUBLICANA NACIONALISTA,"PRODUCTOS ALIMENTICIOS SELLO DE ORO, S.A","48460,7"
2016,PARTIDO ALIANZA REPUBLICANA NACIONALISTA,"SUMINISTROS DE RESTAURANTES, S.A. DE C.V",48000
2016,PARTIDO ALIANZA REPUBLICANA NACIONALISTA,"HENRIQUEZ, S.A. DE C.V.                 ",45000
2016,PARTIDO ALIANZA REPUBLICANA NACIONALISTA,"INMOBILIARIA SAN BENITO, S.A DE C.V.    ",45000
2016,PARTIDO ALIANZA REPUBLICANA NACIONALISTA,"QUALITY GRAINS, S.A. DE C.V.            ",37838
2016,PARTIDO ALIANZA REPUBLICANA NACIONALISTA,INMOBILIARIA APOPA S.A. DE C.V.         ,30000
2016,PARTIDO ALIANZA REPUBLICANA NACIONALISTA,"MONTE RICO, S.A. DE C.V.                ",30000
2016,PARTIDO ALIANZA REPUBLICANA NACIONALISTA,"GRUPO Q EL SALVADOR, S.A. DE C.V.       ","28267,76"
2016,PARTIDO ALIANZA REPUBLICANA NACIONALISTA,"ALMACENES SIMAN, S.A. DE C.V.           ",25000
2016,PARTIDO ALIANZA REPUBLICANA NACIONALISTA,"INDUSTRIAS TOPAZ, S.A.                  ",24000
2016,PARTIDO ALIANZA REPUBLICANA NACIONALISTA,"U TRAVEL SERVICE, S.A. DE C. V.         ",20000
2016,PARTIDO ALIANZA REPUBLICANA NACIONALISTA,"SERVICIOS ZAPOTITAN, S.A. DE C.V.       ",20000
2016,PARTIDO ALIANZA REPUBLICANA NACIONALISTA,"SERVICIOS COLON, S.A. DE C.V.           ",20000
2016,PARTIDO ALIANZA REPUBLICANA NACIONALISTA,"SERVICIOS SAN JULIAN, SOCIEDAD ANONIMA D",20000
2016,PARTIDO ALIANZA REPUBLICANA NACIONALISTA,"GENERAL DE VEHICULOS, SOCIEDAD ANONIMA D",20000
2016,PARTIDO ALIANZA REPUBLICANA NACIONALISTA,INVERSIONES GEVESA                      ,20000
2016,PARTIDO ALIANZA REPUBLICANA NACIONALISTA,"DIZAC, S.A. DE C.V.                     ",20000
2016,PARTIDO ALIANZA REPUBLICANA NACIONALISTA,"ENERGIA BOREALIS, SOCIEDAD ANONIMA DE CA",20000
2016,PARTIDO ALIANZA REPUBLICANA NACIONALISTA,"SERVICIOS LAS MORAS, S.A. DE C.V.       ",18000
2016,PARTIDO ALIANZA REPUBLICANA NACIONALISTA,"SERVICIOS OPICO, S.A. DE C.V.           ",18000
2016,PARTIDO ALIANZA REPUBLICANA NACIONALISTA,"SERVICIOS CIUDAD ARCE, SOCIEDAD ANONIMA ",18000
2016,PARTIDO ALIANZA REPUBLICANA NACIONALISTA,"DISTRIBUIDORA ZABLAH, S.A. DE C.V.      ",16500
2016,PARTIDO ALIANZA REPUBLICANA NACIONALISTA,"ESPECIALISTAS EN PERSONAL, S.A. DE C.V. ",16000
2016,PARTIDO ALIANZA REPUBLICANA NACIONALISTA,INVERSIONES POLITEX S.A. DE C.V.        ,16000
2016,PARTIDO ALIANZA REPUBLICANA NACIONALISTA,"PROFESIONALES DIVERSOS, SOCIEDAD ANONIMA",15000
2016,PARTIDO ALIANZA REPUBLICANA NACIONALISTA,"ZONA FRANCA DE EXPORTACION EL PEDREGAL, ",15000
2016,PARTIDO ALIANZA REPUBLICANA NACIONALISTA,"FARMACEUTICOS EQUIVALENTES, S.A. DE C.V.",15000
2016,PARTIDO ALIANZA REPUBLICANA NACIONALISTA,"INDUSTRIAS MIKE MIKE, S.A. DE C.V.      ",14500
2016,PARTIDO ALIANZA REPUBLICANA NACIONALISTA,"CALLEJA, S.A. DE C.V.                   ",13500
2016,PARTIDO ALIANZA REPUBLICANA NACIONALISTA,"D'CASA,S.A. DE C.V.                     ",13000
2016,PARTIDO ALIANZA REPUBLICANA NACIONALISTA,QUIÑONEZ SOL RAUL ERNESTO               ,13000
2016,PARTIDO ALIANZA REPUBLICANA NACIONALISTA,"TEXTILES SAN ANDRES, SOCIEDAD ANONIMA DE",12500
2016,PARTIDO ALIANZA REPUBLICANA NACIONALISTA,"INDUSTRIAS DE FOAM, S.A. DE C.V.        ",12000
2016,PARTIDO ALIANZA REPUBLICANA NACIONALISTA,"INVERSIONES MAXIMA, S.A. DE C.V.        ",12000
2016,PARTIDO ALIANZA REPUBLICANA NACIONALISTA,"JARDINES, INMUEBLES, S. A. DE C. V.     ",12000
2016,PARTIDO ALIANZA REPUBLICANA NACIONALISTA,"ALPINA, S.A. DE C.V.                    ",12000
2016,PARTIDO ALIANZA REPUBLICANA NACIONALISTA,DADA RINKER VENTURA HUGO GUILLERMO      ,12000
2016,PARTIDO ALIANZA REPUBLICANA NACIONALISTA,HILL DE MATHIES MARIA FLORENCE GLADYS   ,12000
2016,PARTIDO ALIANZA REPUBLICANA NACIONALISTA,"SACOS SINTETICOS CENTROAMERICANOS, S.A. ",11000
2016,PARTIDO ALIANZA REPUBLICANA NACIONALISTA,"APEX PUBLICIDAD, S.A. DE C.V.           ",11000
2016,PARTIDO ALIANZA REPUBLICANA NACIONALISTA,DUEÑAS HERMANOS LTDA                    ,10000
2016,PARTIDO ALIANZA REPUBLICANA NACIONALISTA,OJST DE LARIN ANNA LESLIE               ,9000
2016,PARTIDO ALIANZA REPUBLICANA NACIONALISTA,"SIGMA, S.A. DE C.V.                     ",8500
2016,PARTIDO ALIANZA REPUBLICANA NACIONALISTA,"LACTEOS DEL CORRAL, S.A. DE C.V.        ",8500
2016,PARTIDO ALIANZA REPUBLICANA NACIONALISTA,"C.IMBERTON, S.A. DE C.V.                ",8000
2016,PARTIDO ALIANZA REPUBLICANA NACIONALISTA,MEZA HILL RAFAEL ARTURO                 ,8000
2016,PARTIDO ALIANZA REPUBLICANA NACIONALISTA,"DISTRIBUIDORA SALVADOREÑA,S.A. DE C.V.  ",7855
2016,PARTIDO ALIANZA REPUBLICANA NACIONALISTA,"ESTABLECIMIENTOS ANCALMO, S.A. DE C.V.  ","7735,27"
2016,PARTIDO ALIANZA REPUBLICANA NACIONALISTA,"DISTRIBUCIONES DIVERSAS, S.A. DE C.V.   ",7500
2016,PARTIDO ALIANZA REPUBLICANA NACIONALISTA,"UNION CONSTRUCTORA, S.A. DE C.V.        ",7000
2016,PARTIDO ALIANZA REPUBLICANA NACIONALISTA,"GRUPO ECON, S.A. DE C.V.                ",7000
2016,PARTIDO ALIANZA REPUBLICANA NACIONALISTA,PRADO RIVAS MAURICIO JOSE               ,7000
2016,PARTIDO ALIANZA REPUBLICANA NACIONALISTA,"CONSTRUCTORA DISA, S.A. DE C.V.         ",6500
2016,PARTIDO ALIANZA REPUBLICANA NACIONALISTA,"PASCUAL MERLOS, S.A. DE C.V.            ",6000
2016,PARTIDO ALIANZA REPUBLICANA NACIONALISTA,SANTA REGINA S.A. DE C.V.               ,6000
2016,PARTIDO ALIANZA REPUBLICANA NACIONALISTA,"EL CENTRO TEXTIL, S.A. DE C.V.          ",6000
2016,PARTIDO ALIANZA REPUBLICANA NACIONALISTA,FERGUSON DE BORJA GLORIA VIRGINIA DE LA ,6000
2016,PARTIDO ALIANZA REPUBLICANA NACIONALISTA,MARROQUIN MEJIA MARIO                   ,6000
2016,PARTIDO ALIANZA REPUBLICANA NACIONALISTA,ZAMORA DAVID EDGAR VICTOR               ,5700
2016,PARTIDO ALIANZA REPUBLICANA NACIONALISTA,"CLARIAN, S.A. DE C.V.                   ",5600
2016,PARTIDO ALIANZA REPUBLICANA NACIONALISTA,DISTRIBUIDORA DE ALIMENTOS CONGELADOS S.,5500
2016,PARTIDO ALIANZA REPUBLICANA NACIONALISTA,CRISTIANI BURKARD ALFREDO FELIX         ,5500
2016,PARTIDO ALIANZA REPUBLICANA NACIONALISTA,VALIENTE ALVAREZ JUAN ALBERTO           ,5400
2016,PARTIDO ALIANZA REPUBLICANA NACIONALISTA,CORPORACION SALUD INTEGRAL              ,5250
2016,PARTIDO ALIANZA REPUBLICANA NACIONALISTA,GUERRERO ZELAYA CARLOS JOSE             ,5000
2016,PARTIDO ALIANZA REPUBLICANA NACIONALISTA,AVILA DE PALOMO CARMEN ELENA            ,4800
2016,PARTIDO ALIANZA REPUBLICANA NACIONALISTA,BARRERA GUERRERO HUGO CESAR             ,4500
2016,PARTIDO ALIANZA REPUBLICANA NACIONALISTA,ORTIZ EDGAR EDMUNDO                     ,3750
2016,PARTIDO ALIANZA REPUBLICANA NACIONALISTA,MURRAY MEZA ROBERTO HENDERSON           ,3600
2016,PARTIDO ALIANZA REPUBLICANA NACIONALISTA,"ESCALANTE ZELAYA, RENE GUSTAVO          ",3600
2016,PARTIDO ALIANZA REPUBLICANA NACIONALISTA,VELASQUEZ PARKER RICARDO ANDRES         ,3600
2016,PARTIDO ALIANZA REPUBLICANA NACIONALISTA,AVILA AVILES RODRIGO                    ,3600
2016,PARTIDO ALIANZA REPUBLICANA NACIONALISTA,BENDEK EDGAR ZACARIAS                   ,3000
2016,PARTIDO ALIANZA REPUBLICANA NACIONALISTA,LOUCEL JOSE MAURICIO                    ,3000
2016,PARTIDO ALIANZA REPUBLICANA NACIONALISTA,DUTRIZ FOGELBACH JOSE ROBERTO           ,3000
2016,PARTIDO ALIANZA REPUBLICANA NACIONALISTA,KRIETE AVILA ROBERTO JOSE               ,3000
2016,PARTIDO ALIANZA REPUBLICANA NACIONALISTA,VELADO CONTRERAS JORGE ERNESTO          ,2700
2016,PARTIDO ALIANZA REPUBLICANA NACIONALISTA,PALOMO DENEKE JOAQUIN ALBERTO           ,2500
2016,PARTIDO ALIANZA REPUBLICANA NACIONALISTA,ESCOBAR THOMPSON CARLOS PATRICIO        ,2000
2016,PARTIDO ALIANZA REPUBLICANA NACIONALISTA,CATANI PAPINI CESAR                     ,2000
2016,PARTIDO ALIANZA REPUBLICANA NACIONALISTA,ZAMORA DAVID EDWIN VICTOR ALEJANDRO     ,2000
2016,PARTIDO ALIANZA REPUBLICANA NACIONALISTA,DOMENECH SESA JUAN JOSE                 ,2000
2016,PARTIDO ALIANZA REPUBLICANA NACIONALISTA,ESCALANTE SOL LUIS ALFREDO              ,2000
2016,PARTIDO ALIANZA REPUBLICANA NACIONALISTA,VILANOVA MOLINA ROBERTO ORLANDO         ,2000
2016,PARTIDO ALIANZA REPUBLICANA NACIONALISTA,HILL ARGÜELLO RICARDO DAMIAN            ,1800
2016,PARTIDO ALIANZA REPUBLICANA NACIONALISTA,HERNANDEZ MOLINA KARLA ELENA            ,1800
2016,PARTIDO ALIANZA REPUBLICANA NACIONALISTA,"305 PERSONAS NATURALES CON DONACIONES DEBAJO DE $1,520.85 ","82103,74"
2016,PARTIDO ALIANZA REPUBLICANA NACIONALISTA,"106 PERSONAS JURÍDICAS CON DONACIONES DEBAJO DE $5,170.89","205442,31"
2016,PARTIDO GRAN ALIANZA UNIDAD NACIONAL,"RODRIGUEZ MENJIVAR, ABILIO ORESTES      ",2400
2016,PARTIDO GRAN ALIANZA UNIDAD NACIONAL,"ZABLAH SAFIE, FRANCISCO JOSE            ",2400
2016,PARTIDO GRAN ALIANZA UNIDAD NACIONAL,"VASQUEZ MARTINEZ, GUADALUPE ANTONIO     ",2400
2016,PARTIDO GRAN ALIANZA UNIDAD NACIONAL,"GALLEGOS NAVARRETE, GUILLERMO ANTONIO   ",2400
2016,PARTIDO GRAN ALIANZA UNIDAD NACIONAL,MENDOZA PORTILLO JUAN CARLOS            ,2400
2016,PARTIDO GRAN ALIANZA UNIDAD NACIONAL,HERRERA RIVAS  JUAN PABLO               ,2400
2016,PARTIDO GRAN ALIANZA UNIDAD NACIONAL,"RIVAS ECHEVERRIA, LORENZO               ",2400
2016,PARTIDO GRAN ALIANZA UNIDAD NACIONAL,SOTO  LAZO MANUEL RIGOBERTO             ,2400
2016,PARTIDO GRAN ALIANZA UNIDAD NACIONAL,"TENORIO GUERRERO,  MARIO ALBERTO        ",2400
2016,PARTIDO GRAN ALIANZA UNIDAD NACIONAL,RIVAS RIVAS SANTOS ADELMO               ,2400
2016,PARTIDO GRAN ALIANZA UNIDAD NACIONAL,SALGADO GARCIA NUMAN POMPILIO           ,2400
2016,PARTIDO GRAN ALIANZA UNIDAD NACIONAL,"GUARDADO MENJIVAR, JOSE NELSON          ",2100
2016,PARTIDO GRAN ALIANZA UNIDAD NACIONAL,ZEPEDA PERAZA LORENA MASIEL             ,1800
2016,PARTIDO GRAN ALIANZA UNIDAD NACIONAL,"HERNANDEZ FLORES, SAMUEL ELISEO         ",1800
2016,PARTIDO GRAN ALIANZA UNIDAD NACIONAL,"AGUILAR ZEPEDA, SILVIA INMACULADA       ",1800
2016,PARTIDO GRAN ALIANZA UNIDAD NACIONAL,"RAMIREZ  AVENDAÑO, NESTOR ARTURO        ",1620
2016,PARTIDO GRAN ALIANZA UNIDAD NACIONAL,"297 PERSONAS NATURALES CON DONACIONES DEBAJO DE $1,520.85 ",158733
2016,PARTIDO SALVADOREÑO PROGRESISTA (PSP),"4 PERSONAS NATURALES CON DONACIONES DEBAJO DE $1,520.85 ",521
2016,PARTIDO SALVADOREÑO PROGRESISTA (PSP),"2 PERSONAS JURÍDICAS CON DONACIONES DEBAJO DE $5,170.89",1200
